<?xml version="1.0" encoding="utf-8"?>
<!-- Generator: Adobe Illustrator 18.0.0, SVG Export Plug-In . SVG Version: 6.00 Build 0)  -->
<!DOCTYPE svg PUBLIC "-//W3C//DTD SVG 1.1//EN" "http://www.w3.org/Graphics/SVG/1.1/DTD/svg11.dtd">
<svg version="1.1" id="Laag_1" xmlns="http://www.w3.org/2000/svg" xmlns:xlink="http://www.w3.org/1999/xlink" x="0px" y="0px"
	 viewBox="0 0 70.8 71.2" style="enable-background:new 0 0 70.8 71.2;" xml:space="preserve">
<style type="text/css">
	.st0{fill:#FFFFFF;}
</style>
<g>
	<g>
		<g id="XMLID_5_">
			<g>
				<path class="st0" d="M60.6,33.1c0-0.1,0.1-0.1,0.1-0.1c0.1,0,0.2,0,0.3,0.2c0.1,0.3,0.2,0.5,0.2,0.8c0.3,1.4,1.3,2,2.5,2.2
					c1,0.2,2.1,0.2,3.2,0c0.7-0.1,1-0.6,1.4-1.1c1.3-1.5,0.4-2.9-0.7-3.8c-1.2-1-2.7-0.9-4.2-0.7c-0.6,0.1-1.1,0.3-1.5,0.6
					c-0.1,0.1-0.2,0.2-0.4,0.1c-0.1-0.1-0.3-0.1-0.3-0.2c0-0.1,0.1-0.2,0.2-0.3c0.8-0.5,1.2-0.9,2.7-0.8c0.8-0.1,1.7,0.1,2.6,0.4
					c1.1,0.4,2,1,2.4,2.2c0.4,1.2-0.1,2.5-1.1,3.3c-1.3,0.9-2.8,1.1-4.2,0.7c-1.1-0.3-2.1-1-2.9-1.9C60.4,34.2,60.7,33.7,60.6,33.1z
					"/>
				<path class="st0" d="M54.7,29.5c0.1-0.2,0.3-0.1,0.5-0.2c0.9,0.1,1.7,0.4,2.5,0.7c1.2,0.5,2.3,1.3,3.6,1.7
					c0.3,0.1,0.3,0.4,0.3,0.6c0,0.3-0.2,0.2-0.4,0.2c-1.2-0.3-2.4-0.8-3.5-1.3c-0.9-0.4-1.8-0.7-2.6-1.2c0,0-0.1,0-0.1-0.1
					C54.8,29.8,54.6,29.7,54.7,29.5z"/>
				<path class="st0" d="M49.3,25.2c-0.6-0.5-0.6-0.5,0.1-0.9c0.1,0,0.1-0.1,0.1-0.1c0.9-0.9,1.9-0.6,2.9-0.2c0.9,0.4,1.8,1,2.5,1.6
					c0.7,0.6,0.9,1.4,1,2.2c0,0.3,0.1,0.6,0.1,0.8c0,0.1-0.1,0.2-0.2,0.2c-0.1,0-0.2-0.1-0.2-0.2c-0.2-1-0.8-1.9-1.5-2.6
					c-0.6-0.7-1.4-1.1-2.4-1.4c-0.5-0.2-1.1-0.3-1.7-0.1c-0.5,0.2-0.5,0.2-0.6,0.7C49.4,25.2,49.3,25.2,49.3,25.2z"/>
				<path class="st0" d="M49.1,26.8c-0.6-0.3-1.2-0.6-1.8-1.1c-0.5-0.4-1.1-0.8-1.6-1.2c-1-0.8-1.8-1.7-2.6-2.7
					c-0.2-0.2-0.3-0.5-0.3-0.7c0-0.4,0.2-0.6,0.5-0.5c0.6,0.1,1,0.5,1.5,0.8c1.7,1.5,3.3,3.2,4.9,4.8c0.2,0.2,0.2,0.3,0,0.5
					C49.5,26.9,49.3,26.9,49.1,26.8z"/>
				<path class="st0" d="M48.3,29.6c0.7,0.8,1.5,1.4,2.6,1.5c0.8,0.1,1.6,0.4,2.5,0.2c0.5-0.1,1-0.2,1.4-0.6c0.1-0.2,0.2,0,0.3,0
					c0.2,0.1,0,0.3-0.1,0.3c-0.8,0.5-1.6,0.9-2.5,0.8c-1-0.1-1.9-0.1-2.8-0.5c-1-0.4-1.7-1.2-2.3-2.1c-0.4-0.6-0.5-1.3,0-2
					c0-0.1,0.1-0.2,0.1-0.2c0-0.1,0-0.3,0.1-0.3c0.2,0,0.3,0.1,0.4,0.2c0.2,0.1,0,0.2,0,0.3C47.7,27.9,47.8,29,48.3,29.6z"/>
				<path class="st0" d="M45.8,49.6C45.8,49.6,45.8,49.6,45.8,49.6C45.8,49.6,45.8,49.6,45.8,49.6L45.8,49.6z"/>
				<polygon points="45.8,49.6 45.8,49.6 45.8,49.6 				"/>
				<path class="st0" d="M45.6,18L45.6,18c0.2,0.1,0.3,0.2,0.4,0.4c0.3,0.5,0.4,1,0.4,1.6c0,0.5,0,1.1-0.5,1.4
					c-0.1,0.1-0.2,0.2-0.3,0.1c-0.1-0.1-0.1-0.2,0-0.3c0.5-0.5,0.5-1.2,0.5-1.9C46,18.9,45.9,18.4,45.6,18z"/>
				<path class="st0" d="M45.1,50.1c0.1-0.2,0.3,0,0.5,0.1c0.1,0,0.1,0.1,0.2,0.1c0.1,0.1,0.2,0.2,0.4,0.1c0.1-0.1,0.2,0,0.3,0.1
					c0.7,0.6,1.1,1.4,1.1,2.4c0,0.4,0,0.8,0,1.2c0,0,0,0,0,0c0,0.4,0,0.9,0,1.3c0,0.2,0,0.5-0.3,0.5c-0.3,0-0.3-0.3-0.3-0.5
					c-0.1-0.6,0-1.2-0.1-1.9c-0.1-1-0.5-1.9-1.3-2.5c-0.1-0.1-0.3-0.3-0.4-0.4C45.2,50.4,45,50.2,45.1,50.1z"/>
				<path class="st0" d="M48.4,58.4c-0.2,0.9-0.5,1.7-1,2.5c-0.5,0.8-2.1,1.6-2.9,1.5c-0.3,0-0.5-0.3-0.8-0.3
					c0.1-0.3,0.4-0.3,0.5-0.6c0.2,0.5,0.9,0.6,1.3,0.1c0.2-0.2,0.4-0.3,0.7-0.5c0.7-0.3,1-1,1.3-1.6c0.4-0.7,0.7-1.4,0.8-2.2
					c0.1-0.4,0.1-0.8-0.2-1.1c-0.1-0.1-0.1-0.2,0.1-0.4C48.6,56.7,48.7,57.5,48.4,58.4z"/>
				<path class="st0" d="M42.1,60.1c-0.4-0.9-0.5-1.7-0.1-2.5c0.6-1,1.4-1.9,2.4-2.4c0.5-0.3,1.1-0.3,1.6-0.3c0.1,0,0.3,0,0.3,0.2
					c0,0.2-0.2,0.1-0.3,0.1c-1.1,0.1-2.1,0.5-2.8,1.5c-0.6,0.9-1.1,1.8-1.1,3C42.2,59.8,42.1,59.9,42.1,60.1z"/>
				<path class="st0" d="M40.3,46.2c0.2-0.2,0.5-0.3,0.8-0.3c0.9,0,1.9-0.1,2.8,0.3c1.4,0.5,2.3,1.4,2.6,2.8
					c0.1,0.3,0.1,0.5,0.2,0.8c-0.3-0.1-0.5-0.3-0.6-0.6c-0.5-1.3-1.5-2.2-2.8-2.7c-0.5-0.2-1.1-0.4-1.6-0.4c-0.4,0-0.8,0.1-1,0.4
					c-0.1,0.1-0.1,0.2-0.3,0.1c-0.1-0.1-0.3,0-0.3-0.2C40,46.3,40.2,46.3,40.3,46.2z"/>
				<path class="st0" d="M42,15.6c-0.6,0-1.1,0-1.6,0.3c-0.1,0.1-0.2,0.1-0.3-0.1c-0.1-0.1-0.1-0.4,0-0.4c0.5,0,0.9-0.4,1.4-0.5
					c1.3-0.3,2.3,0.3,3,1.2c0.5,0.6,0.9,1.2,1.2,1.8L45.6,18c-0.2-0.3-0.4-0.6-0.7-0.8C44.1,16.4,43.2,15.7,42,15.6z"/>
				<path class="st0" d="M42.4,61.1c0.4-0.2,0.8-0.5,1.4-0.4c0,0.5-0.3,0.8-0.7,1c-0.8,0.7-1.6,1.4-2.6,1.9c-0.3,0.1-0.7,0.3-0.9,0
					c-0.2-0.3,0.1-0.6,0.3-0.8c0.4-0.5,0.9-0.9,1.5-1.2C41.7,61.4,42,61.3,42.4,61.1z"/>
				<path class="st0" d="M43.8,52.9c-1.2,0.1-2.3-0.2-3.4-0.7c-1-0.4-1.9-2-1.8-3.1c0-0.2,0.1-0.4,0.3-0.5c0,2,1.5,2.6,2.8,3.4
					c0.8,0.4,1.7,0.7,2.6,0.5c0.1,0,0.3,0,0.4,0.1C44.5,52.8,44.1,52.8,43.8,52.9z"/>
				<path class="st0" d="M37.4,19c0.1-0.4,0.2-0.8,0.6-1c0.1-0.1,0.2-0.2,0.1-0.3c-0.3-0.5,0.2-0.4,0.4-0.4c0.1-0.1,0.3,0.1,0.2,0.3
					c-0.1,0.2-0.3,0.3-0.5,0.5c-0.5,0.5-0.7,1.7-0.4,2.2c0.3,0.5,0.6,0.9,0.9,1.3c0.8,1.2,2.1,1.6,3.4,2c0.5,0.1,1,0.1,1.4-0.1
					c0.1,0,0.3-0.1,0.3,0c0.1,0.2-0.1,0.2-0.2,0.2c-0.3,0.2-0.7,0.3-0.9,0.2c-1.9-0.1-3.4-0.8-4.5-2.3C37.6,20.8,37.2,20,37.4,19z"
					/>
				<path class="st0" d="M35.9,11.1c-0.1-0.2-0.1-0.4-0.2-0.6c0-0.2,0-0.3,0.2-0.3c0.2,0.1,0.4,0.2,0.6,0.4c0.7,0.9,1.4,2,1.9,3
					c0.5,1.1,1,2.2,1.7,3.2c0.1,0.2,0.3,0.5,0,0.7c-0.3,0.2-0.5,0-0.7-0.2c-0.8-0.8-1.4-1.8-2-2.8C36.8,13.5,36.3,12.4,35.9,11.1z"
					/>
				<path class="st0" d="M35.9,45.9c-0.1,0-0.2-0.1-0.2-0.2c0-0.1,0.1-0.1,0.1-0.1c0.1,0,0.2,0.1,0.2,0.2
					C36.1,45.9,36,45.9,35.9,45.9z"/>
				<path class="st0" d="M36.8,47.4c-0.4,0-0.7-0.4-1-0.5c-0.1,0-0.1-0.1-0.1-0.2c0-0.1,0.1-0.2,0.2-0.2c0.3,0,0.5,0,0.8,0
					c1.4,0.1,2.7,0.3,3.9,0.9c0.1,0.1,0.2,0.1,0.3,0.2c0.2,0.1,0.4,0.3,0.3,0.5c-0.1,0.2-0.3,0.1-0.5,0.2c-1.1,0.1-2.2-0.1-3.2-0.6
					C37.3,47.5,37.1,47.4,36.8,47.4z"/>
				<path class="st0" d="M35.9,68.7c-0.1,0-0.3-0.1-0.4-0.1c0.9-0.2,1.8-0.4,2.7-0.7c0.3-0.1,0.5-0.3,0.7-0.5
					c0.7-0.5,1.3-1.1,1.8-1.8c0.3-0.5,0.5-0.9,0.3-1.5c0.3,0.2,0.4,0.9,0.2,1.4c-0.4,0.8-0.9,1.5-1.7,2c-1,0.7-2,1.3-3.3,1.2
					C36.1,68.7,36,68.7,35.9,68.7z"/>
				<path class="st0" d="M35.2,45.5C35.3,45.5,35.3,45.5,35.2,45.5L35.2,45.5C35.3,45.6,35.3,45.6,35.2,45.5
					C35.3,45.5,35.3,45.5,35.2,45.5z"/>
				<polygon points="35.3,45.6 35.3,45.6 35.3,45.6 				"/>
				<path d="M35.3,45.6C35.3,45.6,35.3,45.6,35.3,45.6c-0.2-0.1-0.4-0.2-0.6-0.3C34.9,45.3,35.1,45.4,35.3,45.6z"/>
				<path class="st0" d="M35.1,45.4C35.2,45.4,35.2,45.4,35.1,45.4C35.2,45.4,35.2,45.4,35.1,45.4z"/>
				<path class="st0" d="M34.3,45c0.3,0.1,0.6,0.2,0.8,0.4C34.9,45.2,34.6,45.1,34.3,45z"/>
				<path class="st0" d="M34,44.9c0.1,0,0.2,0,0.3,0.1C34.2,44.9,34.1,44.9,34,44.9z"/>
				<path class="st0" d="M33.5,66C33.5,66,33.5,65.9,33.5,66c0-0.1,0-0.1,0-0.1C33.6,65.9,33.6,65.9,33.5,66
					C33.6,65.9,33.6,66,33.5,66z"/>
				<path class="st0" d="M33.3,63.1c0.8-1.6,2.2-1.9,3.8-1.9c0.7,0,1.4,0.3,2,0.5c0.1,0,0.1,0.1,0.2,0.1c0.1,0.1,0.3,0.2,0.2,0.4
					c-0.1,0.2-0.3,0-0.4-0.1c-0.3-0.3-0.7-0.4-1.1-0.4c-1.4-0.1-2.7,0-3.8,1.1c-0.6,0.6-0.8,1.3-0.9,2c0,0.1,0,0.2,0,0.3
					c0,0,0,0-0.1,0.1C33.1,64.4,33,63.7,33.3,63.1z"/>
				<path class="st0" d="M33.5,5.1c0.1-0.5,0.5-0.3,0.7-0.2c1.3,0.2,2.2,0.8,3,1.9c0.5,0.7,1,1.4,1.2,2.3c0.2,0.8,0,1.6-0.3,2.3
					c-0.1,0.1-0.1,0.3-0.3,0.2c-0.1-0.1,0-0.2,0.1-0.3c0.2-0.2,0.2-0.5,0.1-0.8c-0.3-1.2-0.6-2.3-1.2-3.3C36,6,35,5.5,34.1,5.5
					c-1,0-1.7,0.2-2.1,0.8c-0.1,0.1-0.1,0.2-0.3,0.1c-0.1-0.1-0.1-0.2,0-0.3c0-0.2,0.1-0.4,0.3-0.4c0.5-0.2,0.8-0.7,1.4-0.5
					C33.4,5.1,33.4,5.1,33.5,5.1z"/>
				<path class="st0" d="M30.6,51c1,0.8,2.2,0.8,3.3,0.3c1.2-0.6,1.9-1.6,2.2-2.9c0-0.2,0-0.4,0.2-0.4c0.3,0,0.2,0.3,0.3,0.5
					c0,0.1,0,0.1,0,0.2c0,1.2-0.7,2-1.6,2.7c-1.3,1-2.6,1.2-3.8,0.5c-0.3-0.2-0.6-0.3-0.7-0.6c0-0.1-0.1-0.2,0-0.2
					C30.5,50.9,30.5,51,30.6,51z"/>
				<path class="st0" d="M30.2,67.6c1.3-0.5,2.6-0.8,3.9-1.1c0.1,0,0.3-0.1,0.3,0.1c0,0.1,0,0.3-0.2,0.3c-0.1,0.1-0.2,0.2-0.4,0.2
					c-1.1,0.3-2.2,0.9-3.3,1.2c-0.1,0-0.2,0-0.2,0.1c-0.2,0-0.4-0.1-0.4-0.3C29.8,67.8,30,67.7,30.2,67.6z"/>
				<path class="st0" d="M34.9,13.8c-1,0-2.1,0-3.1-0.4c-1-0.4-1.8-1.2-2.3-2.2c-0.3-0.7-0.3-1.9,0.5-2.5c0,0.5-0.2,1-0.2,1.4
					c0,1.3,0.8,2.4,2.1,2.8c0.4,0.1,0.8,0.2,1.2,0.4c0.9,0.3,1.8,0,2.6-0.2c0.1,0,0.2-0.1,0.3,0c0.1,0.1,0,0.2-0.1,0.3
					C35.6,13.6,35.2,13.8,34.9,13.8z"/>
				<path class="st0" d="M31.5,45.2c0.7-0.4,1.7-0.5,2.5-0.4c0.1,0,0.2,0,0.3,0.1c0.3,0.1,0.6,0.2,0.8,0.4c0,0,0.1,0.1,0.1,0.1
					c0,0,0.1,0.1,0.1,0.1c-0.2-0.1-0.4-0.2-0.6-0.3c-1.1-0.4-2.2-0.1-3.3,0.4c-1.4,0.6-2,1.8-2,3.3C29,47.9,29.6,46.3,31.5,45.2z"/>
				<path d="M27.2,47.9c0.1-0.1,0.2,0,0.3,0C27.4,47.9,27.3,47.9,27.2,47.9z"/>
				<path class="st0" d="M26.3,3.7c0.1-0.2,0.3-0.1,0.5-0.1c0.8,0.2,1.5,0.7,2.2,1.2c0.7,0.6,1.5,1.2,2.3,1.8
					c0.2,0.1,0.3,0.3,0.4,0.5c0,0.1,0.1,0.2,0.2,0.3c0.1,0.1,0.3,0,0.3,0.2c0,0.2-0.2,0.2-0.4,0.2c-0.1,0-0.1,0-0.2,0
					c-0.8,0-1.4-0.5-2-1c-0.6-0.5-1.2-0.9-1.8-1.3c-0.6-0.3-1-0.8-1.4-1.3C26.3,4.1,26.1,3.9,26.3,3.7z"/>
				<path class="st0" d="M26.4,51.7c-0.2,0-0.4,0.1-0.5-0.1c-0.1-0.2,0.1-0.4,0.3-0.5c0.5-0.4,1.2-0.5,1.8-0.7
					c0.8-0.3,1.5-0.7,2.2-1.1c0.2-0.1,0.4-0.2,0.6-0.2c0.2,0,0.3-0.1,0.4,0.1c0.1,0.2-0.1,0.3-0.2,0.4c-0.2,0.3-0.6,0.5-0.9,0.7
					C29,51,27.7,51.4,26.4,51.7z"/>
				<path class="st0" d="M25.8,52.4c-0.3,0.2-0.5,0.3-0.7,0.4C25.5,52.3,25.5,52.3,25.8,52.4z"/>
				<path class="st0" d="M23.9,68.3c0.8,0.9,1.7,1.7,3,1.8c1.2,0.1,2.3-0.2,3.2-1.2c0,0.8-1.9,1.7-3,1.6
					C25.4,70.5,24.1,69.8,23.9,68.3z"/>
				<path class="st0" d="M24.5,64.5c0.6-0.7,1.4-1,2.4-0.8c1.2,0.2,2.1,0.8,2.9,1.7c0.2,0.2,0.2,0.2,0.3,0.7c-0.9-1-1.9-1.5-3.1-1.8
					c-0.7-0.2-1.5-0.2-2.1,0.3c0,0-0.1,0.1-0.1,0.1c-0.1,0.1-0.1,0.4-0.3,0.2C24.2,64.7,24.4,64.6,24.5,64.5z"/>
				<path class="st0" d="M23.6,67.7c-0.2-0.3-0.3-0.6-0.1-1C23.7,66.9,23.7,67.2,23.6,67.7z"/>
				<path class="st0" d="M19.9,5.1c0.5-0.2,1-0.3,1.5-0.5c0.1,0,0.4-0.1,0.5,0.1c0,0.3,0.3,0.6,0,0.9c-0.2,0.2-0.5,0.4-0.8,0.5
					c-0.9,0.3-1.8,0.7-2.4,1.4c-0.2,0.2-0.5,0.5-0.7,0.7c-0.5,0.6-1.1,1-1.8,1.1c-0.8,0-1-0.4-0.8-0.9c0.3-0.6,0.7-1.1,1.3-1.5
					C17.7,6.1,18.8,5.6,19.9,5.1z"/>
				<path class="st0" d="M26.6,7.8c0.5-0.3,0.8-0.6,1.1-1c0.1-0.1,0.2-0.3,0.3-0.3c0.2,0.1,0,0.3-0.1,0.4c-0.4,0.8-1,1.4-1.7,1.8
					c-1.7,0.9-3.6,0.4-4.7-0.9c-0.2-0.3-0.3-0.5-0.4-0.9c0.2,0,0.2,0.1,0.3,0.2c0.8,1.2,2,1.5,3.3,1.3C25.3,8.2,26,8.1,26.6,7.8z"/>
				<path class="st0" d="M21,63.7c-0.1-0.1-0.3-0.2-0.2-0.4c0.1-0.2,0.3,0,0.4,0.1c0.7,0.4,1.4,0.9,1.9,1.5c0.3,0.3,0.5,0.5,0.9,0.6
					c0.3,0.1,0.6,0.4,0.8,0.7c-0.2,0.2-0.3,0.2-0.5,0.1C23.2,65.5,22,64.8,21,63.7z"/>
				<path class="st0" d="M25.3,0.6c0.5,0.1,1,0.1,1.5,0.2c1.1,0.2,2,0.8,2.6,1.7c0.4,0.6,0.3,1.2-0.2,1.7c0-1.3-0.6-2.1-1.7-2.8
					c-1.4-0.8-2.8-0.6-4,0c-0.9,0.5-1.9,0.9-2.4,2C20.9,3.6,20.8,3.8,21,4C21,4.2,21,4.3,20.8,4.3c-0.1,0-0.3,0.1-0.4-0.1
					c-0.3-0.6,0-1.1,0.3-1.5C21.9,1.1,23.4,0.4,25.3,0.6z"/>
				<path class="st0" d="M26.5,50.1c-0.2-0.7-0.5-1.3-0.9-1.9c-0.8-1.2-3-2.5-4.7-1.6c-0.1,0-0.2,0.1-0.3,0c0.5-0.3,0.9-0.5,1.5-0.5
					c1.2,0,2.4,0.4,3.3,1.1c0.6,0.5,1.2,1.1,1.5,1.9c0.1,0.3,0.1,0.6,0.1,1c0,0.1-0.1,0.2-0.2,0.3C26.5,50.4,26.5,50.2,26.5,50.1z"
					/>
				<path class="st0" d="M18.9,50.3c1.4,2.3,3.3,3.3,5.9,2.6C23,54.3,19.6,52.6,18.9,50.3z"/>
				<path class="st0" d="M18.6,49c0-0.3,0-0.5,0.1-0.7c0-0.1,0.1-0.2,0.2-0.1c0.1,0.1,0.1,0.1,0,0.2C18.9,48.5,18.8,48.7,18.6,49z"
					/>
				<path class="st0" d="M18.3,57.6c0-0.2,0.2-0.1,0.3-0.1c1.3-0.1,2.2,0.6,2.9,1.5c0.4,0.6,0.8,1.1,0.9,1.9
					c0.1,0.6,0.1,1.2-0.1,1.7c0,0.2-0.1,0.4-0.4,0.4c0.2-1.5-0.2-2.8-1.1-4c-0.6-0.8-1.4-1-2.3-1.2C18.5,57.8,18.3,57.8,18.3,57.6z"
					/>
				<path class="st0" d="M18.6,44.2c-0.1-0.1-0.2-0.2-0.2-0.4c0.2,0.1,0.3,0.1,0.3,0.3C18.7,44.2,18.6,44.2,18.6,44.2z"/>
				<path class="st0" d="M17.5,43.9c0.3,0.5,0.8,0.9,1.2,1.4c0.6,0.7,1.1,1.4,1.6,2.1c0,0.1,0.1,0.2,0.1,0.2
					c0.1,0.2,0.3,0.5,0.1,0.7c-0.3,0.2-0.5-0.1-0.7-0.2c-0.8-0.7-1.5-1.5-2.1-2.3c-0.2-0.2-0.4-0.5-0.6-0.7c-0.3-0.2,0-0.5-0.2-0.7
					c-0.1-0.1-0.5,0-0.6-0.3c-0.1-0.2-0.2-0.3-0.1-0.5c0.1-0.2,0.2-0.2,0.4-0.2C17,43.5,17.3,43.6,17.5,43.9z"/>
				<path class="st0" d="M16.4,54.2C16.4,54.2,16.4,54.1,16.4,54.2c0.1-0.1,0.2-0.1,0.1,0C16.5,54.2,16.5,54.3,16.4,54.2
					C16.4,54.3,16.4,54.2,16.4,54.2z"/>
				<path class="st0" d="M19.6,64.7c-1.2,0.2-2.9-0.8-3.3-1.9c-0.2-0.6-0.6-1.1-0.6-1.8c0-0.6,0.1-1,0.3-1.5
					c0.1-0.2,0.2-0.3,0.2-0.5c0-0.2,0.1-0.4,0.3-0.3c0.3,0.1,0.1,0.3,0.1,0.5c-0.3,0.6-0.3,1.2-0.1,1.8c0.2,0.9,0.7,1.6,1.4,2.2
					c0.4,0.3,0.8,0.8,1.4,0.9c0.4,0.1,0.8,0.2,1.1,0.1c0.2-0.1,0.4-0.1,0.5,0.2c0.1,0.2-0.2,0.2-0.3,0.3
					C20.1,64.8,19.8,64.7,19.6,64.7z"/>
				<polygon class="st0" points="16,51 16,51 16,51 16,51 				"/>
				<rect x="16" y="51" class="st0" width="0" height="0"/>
				<rect x="16" y="51" class="st0" width="0" height="0"/>
				<polygon class="st0" points="16,51 16,51 16,51 				"/>
				<path class="st0" d="M16,51L16,51C16,51,16,51,16,51C16,51,16,51,16,51z"/>
				<path class="st0" d="M15.4,38c1,0,1.9,0.4,2.6,1.1c0.7,0.7,1.4,1.5,1.6,2.5c0.1,0.7,0,1.3-0.3,1.9c0,0.1-0.1,0.1-0.3,0.3
					c0.8-2.1-1.2-6-4.4-5.5C14.9,38.1,15.1,38,15.4,38z"/>
				<path class="st0" d="M17.5,58.3c0,0.1,0.2,0.3,0,0.4c-0.1,0.1-0.3-0.1-0.4-0.1c-0.7-0.7-1.2-1.5-1.7-2.3c-0.3-0.5-0.5-1-0.7-1.6
					c0-0.2-0.1-0.3,0.1-0.5c0.1,0.1,0.2,0.1,0.3,0.1c0.3,0.2,0.7,0.5,0.8,0.9C16.6,56.2,17.1,57.2,17.5,58.3z"/>
				<path class="st0" d="M16.4,13.4c0.9-0.1,1.6-0.6,2.1-1.3c0.6-0.8,1.1-1.6,1-2.6c0-0.5-0.1-0.9-0.5-1.2C19,8.2,18.9,8.1,19,8
					c0.1-0.1,0.2-0.1,0.3,0c0.3,0.2,0.5,0.4,0.6,0.7c0.3,1.6-0.1,3.5-1.8,4.6c-1,0.6-1.9,0.8-3,0.9c-0.3,0-0.7,0.1-0.8-0.3
					c0.6-0.1,1.2-0.1,1.8-0.3C16.2,13.5,16.3,13.4,16.4,13.4z"/>
				<path class="st0" d="M14.1,13.5c0.1-0.2,0.2-0.3,0.3-0.3c0.1,0,0.1,0.1,0.1,0.1C14.4,13.5,14.3,13.5,14.1,13.5z"/>
				<path class="st0" d="M14.2,13.8L14.2,13.8C14.2,13.8,14.2,13.8,14.2,13.8C14.2,13.8,14.2,13.8,14.2,13.8z"/>
				<path class="st0" d="M14.2,13.8L14.2,13.8C14.2,13.8,14.2,13.8,14.2,13.8C14.2,13.8,14.2,13.8,14.2,13.8z"/>
				<path class="st0" d="M14,13.7c0.1,0,0.2,0,0.2,0.1C14.1,13.8,14,13.8,14,13.7C13.9,13.8,14,13.7,14,13.7z"/>
				<path class="st0" d="M12.9,16.5C12.9,16.5,12.9,16.6,12.9,16.5C13,16.6,13,16.6,12.9,16.5C12.9,16.6,12.9,16.6,12.9,16.5z"/>
				<path class="st0" d="M12.9,16.5C12.9,16.6,12.9,16.6,12.9,16.5C12.9,16.6,12.9,16.6,12.9,16.5C12.9,16.5,12.9,16.5,12.9,16.5z"
					/>
				<polygon points="12.9,16.5 12.9,16.5 12.9,16.5 12.8,16.5 12.8,16.5 				"/>
				<path class="st0" d="M12.9,16.5C12.9,16.5,12.9,16.5,12.9,16.5C12.9,16.5,12.9,16.5,12.9,16.5C12.9,16.5,12.9,16.5,12.9,16.5
					C12.8,16.5,12.8,16.5,12.9,16.5L12.9,16.5z"/>
				<polygon class="st0" points="12.9,16.5 12.9,16.5 12.9,16.5 				"/>
				<path class="st0" d="M12.9,16.5C12.8,16.5,12.8,16.5,12.9,16.5C12.8,16.5,12.8,16.5,12.9,16.5C12.8,16.5,12.9,16.5,12.9,16.5
					C12.9,16.5,12.9,16.5,12.9,16.5z"/>
				<path class="st0" d="M12.8,16.5C12.8,16.5,12.8,16.5,12.8,16.5C12.8,16.5,12.8,16.5,12.8,16.5C12.8,16.5,12.8,16.5,12.8,16.5z"
					/>
				<path class="st0" d="M12.8,16.4c0,0,0,0.1,0,0.1C12.8,16.5,12.8,16.5,12.8,16.4c-0.1,0.1-0.1,0-0.2-0.1
					C12.7,16.3,12.7,16.4,12.8,16.4C12.8,16.4,12.8,16.4,12.8,16.4z"/>
				<path class="st0" d="M12.8,16.4C12.8,16.4,12.8,16.4,12.8,16.4C12.8,16.4,12.8,16.4,12.8,16.4z"/>
				<path class="st0" d="M12.6,16.3c0,0,0.1,0.1,0.1,0.1C12.7,16.4,12.7,16.3,12.6,16.3C12.6,16.3,12.6,16.3,12.6,16.3z"/>
				<polygon class="st0" points="12.6,16.3 12.6,16.3 12.6,16.3 12.6,16.3 				"/>
				<polygon class="st0" points="12.6,16.3 12.6,16.3 12.6,16.3 				"/>
				<path d="M12.6,16.3C12.6,16.3,12.6,16.3,12.6,16.3C12.6,16.3,12.6,16.3,12.6,16.3C12.6,16.3,12.6,16.3,12.6,16.3
					C12.6,16.3,12.6,16.3,12.6,16.3C12.6,16.3,12.6,16.3,12.6,16.3C12.6,16.3,12.6,16.3,12.6,16.3L12.6,16.3z"/>
				<path class="st0" d="M12.6,16.3C12.6,16.3,12.6,16.3,12.6,16.3C12.5,16.3,12.5,16.3,12.6,16.3C12.6,16.3,12.6,16.3,12.6,16.3z"
					/>
				<path class="st0" d="M11.5,10.2c0-2,2-4.3,4-4.7c0.5-0.1,0.9,0.1,1.3,0.3C16.9,5.8,17,5.9,17,6c-0.1,0.1-0.2,0.1-0.3,0
					C15.8,5.6,15,6,14.3,6.4c-0.6,0.3-0.9,1-1.2,1.6c-0.3,0.6-0.8,1.1-0.8,1.8c0,0.1-0.1,0.2,0,0.3c0.1,0.6,0.2,1.1,0.7,1.4
					c0.2,0.1,0.2,0.2,0.1,0.3c-0.1,0.1-0.2,0.3-0.3,0.4c-0.2,0.2-0.3,0.2-0.5,0C11.6,11.7,11.5,11,11.5,10.2z"/>
				<path class="st0" d="M13.3,45.5c-1.4-1-2.2-3.5-1.6-5.1c0.1-0.4,0.4-0.7,0.7-1c0.2-0.1,0.3-0.2,0.6-0.1c-1.1,1-1.4,2.6-0.7,3.8
					c0.4,0.7,0.8,1.3,1.4,1.8c0.5,0.4,1,0.5,1.6,0.6c0.3,0.1,0.6,0,0.9-0.3c0.1-0.1,0.2-0.2,0.3-0.1c0.2,0.1,0.3,0.3,0.3,0.5
					c0,0.2-0.2,0.2-0.3,0.2c-0.4,0-0.8,0.3-1.2,0.3C14.6,46.2,13.9,45.9,13.3,45.5z"/>
				<path class="st0" d="M11.8,34.7c-0.1-0.3-0.2-0.6-0.3-0.8c-0.1-0.2-0.1-0.3,0-0.4c0.2-0.1,0.3,0,0.5,0.1
					c0.3,0.3,0.4,0.7,0.5,1.1c0.4,1.6,1.2,3,1.9,4.4c0.1,0.3,0.2,0.6,0.3,0.8c0,0.1,0,0.2-0.1,0.3c-0.1,0-0.2,0-0.2-0.1
					c-0.4-0.4-0.7-0.7-1-1.2C12.7,37.6,12.3,36.1,11.8,34.7z"/>
				<path class="st0" d="M11.6,49.8c-0.1,0.1-0.1,0.1-0.2,0c-0.1-0.1,0-0.1,0-0.2c0.4-0.4,0.7-0.7,1.3-0.7c0.8,0,1.5,0.3,2.1,0.8
					c0.5,0.4,0.9,0.8,1.2,1.3c0,0-0.1,0-0.1,0c-0.5-0.1-0.7-0.5-1.1-0.8c-0.8-0.7-1.7-0.8-2.7-0.7C11.9,49.6,11.8,49.6,11.6,49.8z"
					/>
				<path class="st0" d="M11.5,27.9C11.5,28,11.5,28,11.5,27.9C11.5,28,11.5,28,11.5,27.9z"/>
				<path class="st0" d="M11.4,28.1C11.4,28,11.4,28,11.4,28.1C11.4,28,11.4,28,11.4,28.1L11.4,28.1z"/>
				<polygon class="st0" points="11.4,28.1 11.4,28.1 11.4,28.1 11.4,28.1 11.4,28.1 				"/>
				<polygon class="st0" points="11.4,28.1 11.4,28.1 11.4,28.1 11.4,28.1 				"/>
				<polygon class="st0" points="11.4,28.1 11.4,28.1 11.4,28.1 				"/>
				<path class="st0" d="M11.4,28.1C11.4,28.1,11.4,28.1,11.4,28.1C11.4,28.1,11.4,28.1,11.4,28.1C11.4,28.1,11.4,28.1,11.4,28.1
					C11.4,28.1,11.4,28.1,11.4,28.1z"/>
				<path class="st0" d="M11.2,28c0,0,0.1,0,0.1,0C11.3,28.1,11.3,28,11.2,28z"/>
				<path class="st0" d="M11.4,28.1c0,0-0.1,0-0.1,0c0,0,0,0,0,0C11.3,28,11.3,28.1,11.4,28.1z"/>
				<path class="st0" d="M10.7,23.6c1.3-0.2,2-1.1,2.5-2.3c0.3-0.7,0.6-1.4,0.5-2.2c0-0.2,0-0.4,0-0.5c0-0.1,0-0.2,0.1-0.3
					c0.1,0,0.1,0.1,0.2,0.2c0.4,1.1,0.2,2.1-0.2,3.1c-0.6,1.2-1.5,2-2.8,2.2c-0.1,0-0.1,0-0.2,0c-0.1,0-0.3,0-0.3-0.1
					C10.4,23.6,10.6,23.6,10.7,23.6z"/>
				<path class="st0" d="M10.1,51.4c-0.1,0-0.2,0-0.2-0.1c0-0.1,0.1-0.2,0.2-0.2c0.1,0,0.2,0,0.2,0.2C10.4,51.4,10.2,51.4,10.1,51.4
					z"/>
				<path class="st0" d="M9.8,18.1c-0.2,0-0.2-0.2-0.2-0.4c0.1-0.5,0.3-1,0.6-1.4c0.7-1.1,1.4-2.1,2.3-3c0.5-0.5,0.8-1.1,1.3-1.6
					c0.1-0.1,0.3-0.3,0.4-0.2c0.2,0.1,0.1,0.3,0,0.5c-0.3,0.8-0.9,1.5-1.4,2.2c-0.3,0.4-0.5,0.7-0.8,1.1c-0.5,0.9-1.1,1.7-1.7,2.5
					C10.2,18,10,18.1,9.8,18.1z"/>
				<path class="st0" d="M9.9,52.4c-0.2,1.3,1.1,2.9,2.5,3.2c0.6,0.2,1.3,0.3,1.9,0.2c0.2,0,0.3,0,0.3,0.2c0.1,0.2-0.1,0.3-0.2,0.3
					c-1.1,0.2-2.1,0.3-3.1-0.4c-0.3-0.2-0.5-0.4-0.8-0.5c-1.2-0.6-1.6-2.6-0.7-3.5C9.9,52,9.9,52.2,9.9,52.4z"/>
				<path class="st0" d="M8.8,22.7c0.1-0.4,0.4-0.4,0.6-0.4c0.3,0,0.3,0.3,0.3,0.5c0.1,0.5,0.1,1,0,1.6c0.1,1.5,0.2,2.9,0.4,4.4
					c0,0.4,0,0.8-0.1,1.1c-0.2,0.3-0.3,0.4-0.5,0.1c-0.4-0.5-0.6-1.1-0.7-1.7c-0.2-1.5-0.3-3,0-4.5C8.8,23.4,8.7,23.1,8.8,22.7z"/>
				<path class="st0" d="M7,47.9c0.1-0.2,0.4,0,0.5,0c1.2,0.4,2,1.2,3,2c0.4,0.3,0.8,0.5,1.1,0.9c-0.4,0.1-0.8,0-1.1-0.2
					c-1.1-0.6-2.1-1.2-3.2-2c-0.1-0.1-0.2-0.1-0.2-0.2C7,48.3,6.8,48.1,7,47.9z"/>
				<path class="st0" d="M6.8,31.5c0-1.1,0.1-1.9,0.7-2.4c0,0,0.1-0.1,0.1-0.1c0.2-0.1,0.4-0.4,0.6-0.1c0.2,0.2-0.2,0.3-0.3,0.4
					c-0.9,0.7-1,1.5-0.8,2.6c0.4,1.6,1.3,2.6,2.9,3c0.3,0.1,0.5,0.1,0.8,0c0.1-0.1,0.3-0.1,0.4,0c0.1,0.1,0.1,0.3,0.1,0.4
					c-0.1,0.2-0.3,0.1-0.4,0.1c-0.7,0-1.3-0.1-1.9-0.4C7.4,34.2,6.9,32.9,6.8,31.5z"/>
				<path class="st0" d="M5.6,20.5c0-0.1,0-0.2,0-0.3c0.2-2,0.9-3.8,2.6-5.1c0.6-0.4,1.2-0.4,1.8-0.2c0.1,0,0.2,0.1,0.2,0.2
					c0,0.1-0.2,0.1-0.3,0.1c-1.4-0.3-2.1,0.6-2.8,1.5c-0.9,1.1-1,2.4-0.9,3.8c0,0.6,0.4,1,0.7,1.5c0.3,0.4,0.5,0.9,1.1,1
					c0.1,0,0.2,0.1,0.1,0.2c0,0.1-0.1,0.1-0.2,0.1c-0.3,0-0.5-0.2-0.7-0.3C6.1,22.6,5.7,21.7,5.6,20.5z"/>
				<path class="st0" d="M2.2,47.8c0.9,0.9,1.9,1.8,3.2,1.9c0.5,0,0.9-0.1,1.3-0.4c0.1-0.1,0.2-0.2,0.3-0.1c0.1,0.1,0,0.3-0.1,0.3
					c-0.9,0.6-1.8,0.9-2.8,0.5C4,50.1,3.8,50,3.7,49.9C2.7,49.6,2.2,48.9,2.2,47.8z"/>
				<path class="st0" d="M3.1,43.9C2.9,44,2.6,44.3,2.4,44c-0.2-0.3,0.2-0.4,0.4-0.6c0.8-0.7,1.7-0.8,2.7-0.5c1.2,0.4,2.1,0.9,2.8,2
					c0.2,0.4,0.3,0.8,0.4,1.2c-0.4-0.8-1.1-1.2-1.8-1.7c-0.4-0.3-0.8-0.5-1.3-0.7C4.7,43.4,3.9,43.5,3.1,43.9z"/>
				<path class="st0" d="M1.6,44.6c0.1-0.1,0.2-0.2,0.3-0.1c0.1,0.1,0.2,0.2,0.2,0.3c0,0.2,0,0.4-0.1,0.6c-0.1,0.2,0,0.5-0.3,0.4
					c-0.3,0-0.3-0.3-0.3-0.5C1.4,45,1.5,44.8,1.6,44.6z"/>
				<path d="M16.4,54.2C16.4,54.2,16.4,54.3,16.4,54.2c0.1,0.1,0.1,0,0.1,0C16.5,54.1,16.5,54.1,16.4,54.2
					C16.4,54.1,16.4,54.2,16.4,54.2z M14.1,13.5c0.2,0,0.3,0,0.4-0.2c0-0.1,0-0.1-0.1-0.1C14.2,13.2,14.2,13.3,14.1,13.5z
					 M12.8,16.4c0,0-0.1-0.1-0.1-0.1c0,0,0,0,0,0c0,0,0,0,0,0l0,0h0c0,0,0,0,0,0c0,0,0,0,0,0c0,0,0,0,0,0c0,0.1,0.1,0.2,0.2,0.2
					c0,0,0,0,0,0c0,0,0,0,0,0c0,0,0,0,0,0c0,0,0,0,0.1,0.1c0,0,0,0,0,0c0,0,0,0-0.1,0c0,0,0,0,0,0c0,0,0,0,0,0c0,0,0,0,0,0
					C12.8,16.5,12.8,16.4,12.8,16.4C12.8,16.4,12.8,16.4,12.8,16.4z M12.6,16.3C12.6,16.3,12.6,16.3,12.6,16.3
					C12.6,16.3,12.6,16.3,12.6,16.3C12.5,16.3,12.5,16.3,12.6,16.3z M10,51.3c0,0.1,0.1,0.1,0.2,0.1c0.1,0,0.2,0,0.2-0.1
					c0-0.1-0.1-0.1-0.2-0.2C10,51.1,10,51.2,10,51.3z M23.5,66.6c-0.2,0.4-0.1,0.7,0.1,1C23.7,67.2,23.7,66.9,23.5,66.6z M20.8,63.3
					c-0.1,0.1,0.1,0.3,0.2,0.4c1,1.1,2.2,1.8,3.4,2.6c0.2,0.1,0.3,0.1,0.5-0.1c-0.2-0.3-0.5-0.6-0.8-0.7c-0.4-0.1-0.6-0.3-0.9-0.6
					c-0.5-0.6-1.2-1.1-1.9-1.5C21.2,63.3,21,63.2,20.8,63.3z M18.9,50.3c0.7,2.3,4.1,4,5.9,2.6C22.2,53.6,20.3,52.6,18.9,50.3z
					 M18.6,49c0.1-0.3,0.2-0.5,0.3-0.6c0-0.1,0.1-0.2,0-0.2c-0.1-0.1-0.2,0-0.2,0.1C18.7,48.4,18.7,48.6,18.6,49z M18.4,43.8
					c0,0.2,0,0.3,0.2,0.4c0.1,0,0.1,0,0.1-0.1C18.7,43.9,18.6,43.9,18.4,43.8z M18.6,57.5c-0.1,0-0.3,0-0.3,0.1
					c0,0.2,0.2,0.1,0.3,0.2c0.9,0.2,1.7,0.4,2.3,1.2c0.9,1.2,1.4,2.5,1.1,4c0.3,0,0.4-0.2,0.4-0.4c0.1-0.6,0.2-1.1,0.1-1.7
					c-0.1-0.7-0.5-1.3-0.9-1.9C20.8,58.1,19.9,57.4,18.6,57.5z M18.1,8.8c-0.6,0.6-1.3,0.9-2.2,1c-1,0-1.4-0.7-1-1.6
					c0.3-0.7,0.7-1.3,1.4-1.7c-0.2-0.2-0.4-0.2-0.5-0.1c-0.8,0.2-1.6,0.5-2,1.4c-0.2,0.4-0.4,0.9-0.7,1.3c-0.3,0.4-0.3,0.9-0.2,1.3
					c0.1,0.6,0.6,0.8,1.1,0.5c0.3-0.1,0.5-0.1,0.7,0.1c0.3,0.3,0.3,0.7,0.1,1.1c-0.1,0.1-0.2,0.3-0.1,0.5c0.2,0.4,0.7,0.6,1.1,0.5
					c0.2-0.1,0.4-0.1,0.6-0.2c0.5-0.1,1-0.3,1.4-0.8c0.4-0.5,0.7-1,1-1.5c0.3-0.5,0.3-1,0.1-1.5C18.8,8.5,18.5,8.5,18.1,8.8z
					 M16.8,60.2c0,1.6,1,2.7,2.5,3.3c0.1,0.1,0.3,0.1,0.5,0.1c0.2,0,0.3,0,0.3-0.3c-0.1-0.7,0.1-0.9,0.8-0.8
					c0.6,0.1,0.6,0.1,0.5-0.5c0-0.6-0.2-1.1-0.4-1.6c-0.4-1.2-1.3-1.9-2.5-2c-0.2,0-0.3,0-0.3,0.2c-0.1,0.6-0.2,0.8-0.9,0.7
					c-0.2,0-0.3-0.1-0.4,0.1C16.9,59.7,16.8,60,16.8,60.2z M16.3,62.8c0.4,1.1,2.1,2.1,3.3,1.9c0.2,0,0.5,0,0.8-0.1
					c0.1-0.1,0.4-0.1,0.3-0.3c-0.1-0.2-0.3-0.2-0.5-0.2c-0.4,0.1-0.8,0-1.1-0.1c-0.6-0.2-1-0.6-1.4-0.9c-0.7-0.6-1.2-1.3-1.4-2.2
					c-0.1-0.6-0.1-1.2,0.1-1.8c0.1-0.1,0.2-0.4-0.1-0.5c-0.2,0-0.2,0.2-0.3,0.3c0,0.2-0.1,0.3-0.2,0.5c-0.2,0.5-0.4,0.9-0.3,1.5
					C15.7,61.7,16,62.2,16.3,62.8z M18.5,12.1c-0.5,0.7-1.2,1.2-2.1,1.3c-0.1,0-0.2,0.1-0.3,0.1c-0.6,0.2-1.2,0.3-1.8,0.3
					c0,0,0,0,0,0c0,0,0,0,0,0c0-0.1-0.1-0.2-0.2-0.1c0,0-0.1,0.1-0.1,0.1c0.1,0.1,0.2,0,0.3,0.1c0,0,0,0,0,0c0,0,0,0,0,0
					c0.2,0.4,0.5,0.3,0.8,0.3c1.1-0.1,2.1-0.3,3-0.9c1.7-1.1,2.1-3,1.8-4.6c-0.1-0.4-0.3-0.6-0.6-0.7c-0.1-0.1-0.2-0.1-0.3,0
					c-0.1,0.1,0,0.2,0.1,0.2c0.3,0.3,0.4,0.8,0.5,1.2C19.6,10.5,19,11.3,18.5,12.1z M17.6,43.2c0.2,0.2,0.5,0.2,0.8,0.1
					c0.3-0.2,0.3-0.4,0.3-0.7c0.1-0.8-0.4-1.4-0.7-2.1c-0.5-1.1-1.5-1.4-2.5-1.6c-0.4-0.1-0.5,0.1-0.3,0.5c0.1,0.3,0.2,0.7,0.2,1
					c-0.1,0.5-0.3,0.6-0.8,0.4c-0.3-0.1-0.5-0.4-0.7-0.6c-0.3-0.3-0.7-0.3-0.8,0.1c-0.2,0.6-0.4,1.1-0.3,1.7
					c0.1,0.9,0.7,1.7,1.3,2.3c0.5,0.5,1.1,0.8,1.9,0.6c0.3-0.1,0.4-0.2,0.2-0.5c-0.2-0.3-0.3-0.9-0.1-1.2c0.3-0.3,0.6-0.4,1-0.3
					C17.1,42.9,17.4,43,17.6,43.2z M17.6,58.7c0.2-0.1,0-0.2,0-0.4c-0.4-1.1-0.9-2.1-1.4-3.1c-0.2-0.4-0.5-0.6-0.8-0.9
					c-0.1-0.1-0.2-0.1-0.3-0.1c-0.2,0.1-0.2,0.3-0.1,0.5c0.1,0.6,0.4,1.1,0.7,1.6c0.5,0.8,1,1.6,1.7,2.3
					C17.3,58.6,17.4,58.8,17.6,58.7z M16.3,9.3c0.6,0,1.2-0.5,1.8-1.1c0.2-0.2,0.4-0.5,0.7-0.7c0.7-0.7,1.5-1.1,2.4-1.4
					c0.3-0.1,0.5-0.3,0.8-0.5c0.3-0.3,0-0.6,0-0.9c0-0.2-0.3-0.2-0.5-0.1c-0.5,0.1-1.1,0.2-1.5,0.5c-1.1,0.5-2.2,1-3.2,1.7
					c-0.5,0.4-1,0.8-1.3,1.5C15.2,8.9,15.5,9.3,16.3,9.3z M18.1,39.1c-0.7-0.7-1.6-1.2-2.6-1.1c-0.3,0-0.6,0.1-0.9,0.3
					c3.2-0.5,5.2,3.4,4.4,5.5c0.3-0.2,0.3-0.2,0.3-0.3c0.3-0.6,0.4-1.3,0.3-1.9C19.5,40.6,18.8,39.8,18.1,39.1z M17.1,45
					c0.2,0.2,0.4,0.5,0.6,0.7c0.6,0.8,1.3,1.7,2.1,2.3c0.2,0.2,0.4,0.4,0.7,0.2c0.2-0.2,0-0.5-0.1-0.7c0-0.1-0.1-0.2-0.1-0.2
					c-0.5-0.7-1-1.5-1.6-2.1c-0.4-0.5-0.9-0.9-1.2-1.4c-0.2-0.3-0.5-0.4-0.8-0.5c-0.2,0-0.3,0-0.4,0.2c-0.1,0.2,0,0.3,0.1,0.5
					c0.2,0.2,0.5,0.1,0.6,0.3C17.1,44.5,16.9,44.8,17.1,45z M8.7,23.7c-0.3,1.5-0.2,3,0,4.5C8.8,28.9,9,29.5,9.4,30
					c0.2,0.3,0.4,0.3,0.5-0.1c0.2-0.4,0.2-0.7,0.1-1.1c-0.1-1.5-0.3-2.9-0.4-4.4c0-0.5,0.1-1,0-1.6c0-0.2,0-0.5-0.3-0.5
					c-0.3,0-0.6,0.1-0.6,0.4C8.7,23.1,8.8,23.4,8.7,23.7z M7.5,47.9c-0.2-0.1-0.4-0.2-0.5,0c-0.1,0.2,0,0.4,0.1,0.6
					c0,0.1,0.1,0.1,0.2,0.2c1,0.7,2.1,1.3,3.2,2c0.3,0.2,0.7,0.2,1.1,0.2c-0.3-0.4-0.7-0.6-1.1-0.9C9.5,49.2,8.7,48.3,7.5,47.9z
					 M7.6,29.2c-0.7,0.5-0.7,1.3-0.7,2.4c0,1.3,0.6,2.7,2.3,3.4c0.6,0.3,1.2,0.4,1.9,0.4c0.1,0,0.3,0.1,0.4-0.1c0-0.1,0-0.3-0.1-0.4
					c-0.1-0.2-0.2-0.1-0.4,0c-0.3,0.1-0.5,0.1-0.8,0c-1.6-0.4-2.5-1.4-2.9-3C7,30.9,7.1,30,8,29.3c0.1-0.1,0.5-0.2,0.3-0.4
					c-0.2-0.2-0.4,0-0.6,0.1C7.6,29.1,7.6,29.1,7.6,29.2z M5.6,20.2c0,0.1,0,0.2,0,0.3c0.1,1.2,0.6,2.1,1.6,2.6
					c0.2,0.1,0.4,0.3,0.7,0.3c0.1,0,0.2,0,0.2-0.1c0-0.1-0.1-0.2-0.1-0.2c-0.5-0.1-0.8-0.6-1.1-1c-0.3-0.5-0.7-0.9-0.7-1.5
					c-0.1-1.4,0-2.7,0.9-3.8c0.7-0.9,1.4-1.8,2.8-1.5c0.1,0,0.2,0,0.3-0.1c0-0.1-0.1-0.2-0.2-0.2c-0.6-0.3-1.3-0.3-1.8,0.2
					C6.5,16.4,5.8,18.1,5.6,20.2z M2.8,43.5c-0.2,0.2-0.5,0.3-0.4,0.6c0.1,0.2,0.4,0,0.6-0.1c0.8-0.4,1.6-0.5,2.5-0.2
					c0.5,0.2,0.9,0.4,1.3,0.7c0.7,0.5,1.4,1,1.8,1.7c-0.1-0.4-0.1-0.8-0.4-1.2c-0.7-1-1.7-1.6-2.8-2C4.5,42.7,3.6,42.8,2.8,43.5z
					 M3.1,45.5c-0.5,0.5-0.6,1.3-0.3,1.9c0.3,0.6,0.8,1,1.4,1.3C4.6,49,5,49.3,5.4,49.2c0.1,0,0.1,0,0.2,0c0.3,0,0.6-0.1,0.8-0.3
					c0.2-0.2-0.1-0.4-0.2-0.6c-0.2-0.7,0-1,0.7-1.1c0.2,0,0.4,0,0.7,0.1c0.2,0,0.3,0,0.3-0.2C8,46.7,8,46.2,7.7,45.9
					c-0.7-0.7-1.5-1.4-2.6-1.7c-0.6-0.1-1.1,0-1.6,0.3c-0.2,0.2-0.5,0.4-0.2,0.7C3.3,45.3,3.2,45.5,3.1,45.5z M5.5,49.7
					c-1.4-0.1-2.3-1-3.2-1.9c0,1,0.5,1.7,1.4,2.1C3.8,50,4,50.1,4.1,50.1c1,0.3,2,0.1,2.8-0.5c0.1-0.1,0.3-0.2,0.1-0.3
					c-0.1-0.1-0.2,0-0.3,0.1C6.4,49.7,6,49.8,5.5,49.7z M1.4,45.3c0,0.2,0,0.5,0.3,0.5C2,45.8,2,45.5,2,45.4
					c0.1-0.2,0.1-0.4,0.1-0.6c0-0.1,0-0.2-0.2-0.3c-0.1-0.1-0.3,0-0.3,0.1C1.5,44.8,1.4,45,1.4,45.3z M45.6,50.1
					c-0.2-0.1-0.3-0.2-0.5-0.1c-0.1,0.2,0,0.3,0.1,0.5c0.1,0.1,0.3,0.3,0.4,0.4c0.8,0.7,1.1,1.5,1.3,2.5c0.1,0.6-0.1,1.2,0.1,1.9
					c0,0.2,0.1,0.5,0.3,0.5c0.2,0,0.3-0.3,0.3-0.5c0-0.5,0-0.9,0-1.3c0,0,0,0,0,0c0-0.4,0-0.8,0-1.2c0-0.9-0.4-1.7-1.1-2.4
					c-0.1-0.1-0.1-0.2-0.3-0.1c-0.2,0.1-0.3,0-0.4-0.1C45.8,50.2,45.7,50.2,45.6,50.1z M42.8,59.6c0.1,0.1-0.2,0.5,0.2,0.5
					c0.3,0,0.6,0,0.9,0c0.7,0,0.8,0.2,0.5,0.8c0,0.1-0.2,0.2-0.1,0.3c0.1,0.1,0.2,0.1,0.4,0.1c0.1,0,0.3-0.1,0.4-0.1
					c0.7-0.4,1.3-1,1.7-1.8c0.3-0.7,0.7-1.4,0.9-2.2c0.1-0.3,0.1-0.7-0.4-0.7c-0.2,0-0.4-0.2-0.5-0.4c-0.2-0.3-0.4-0.3-0.7-0.3
					c-0.4,0-0.7,0.1-1.1,0.2C43.9,56.5,42.8,58.2,42.8,59.6z M42.1,57.7c-0.4,0.8-0.3,1.6,0.1,2.5c0-0.2,0.1-0.4,0.1-0.5
					c0-1.1,0.5-2.1,1.1-3c0.7-1,1.7-1.3,2.8-1.5c0.1,0,0.3,0,0.3-0.1c0-0.1-0.1-0.2-0.3-0.2c-0.6,0-1.1,0-1.6,0.3
					C43.4,55.8,42.6,56.7,42.1,57.7z M41.4,14.9c-0.5,0.1-0.9,0.5-1.4,0.5c-0.1,0-0.1,0.3,0,0.4c0.1,0.1,0.2,0.2,0.3,0.1
					c0.5-0.3,1.1-0.3,1.6-0.3c1.2,0.1,2.1,0.8,3,1.6c0.3,0.3,0.5,0.5,0.7,0.8c0.2,0.4,0.4,0.8,0.4,1.3c0,0.6,0.1,1.3-0.5,1.9
					c-0.1,0.1-0.1,0.2,0,0.3c0.2,0.1,0.2,0,0.3-0.1c0.5-0.4,0.5-0.9,0.5-1.4c0.1-0.6-0.1-1.1-0.4-1.6c-0.1-0.2-0.2-0.3-0.3-0.5
					c-0.4-0.6-0.8-1.2-1.2-1.8C43.7,15.2,42.7,14.6,41.4,14.9z M41.3,61.6c-0.6,0.3-1.1,0.6-1.5,1.2c-0.2,0.3-0.5,0.6-0.3,0.8
					c0.2,0.3,0.6,0.1,0.9,0c1-0.4,1.8-1.2,2.6-1.9c0.3-0.3,0.6-0.5,0.7-1c-0.5-0.1-0.9,0.1-1.4,0.4C42,61.3,41.7,61.4,41.3,61.6z
					 M40,50.1c0.8,0.9,1.8,1.4,2.9,1.8c0.6,0.2,1.3,0.1,2-0.2c0.5-0.2,0.5-0.3,0.1-0.7c-0.2-0.2-0.4-0.4-0.5-0.7
					c-0.2-0.5,0.2-1,0.8-0.9c0.1,0,0.3,0.1,0.4,0.1l0,0h0c0,0,0,0,0,0c0,0,0,0,0,0c-0.2-0.3-0.2-0.6-0.4-0.9
					c-0.9-1.3-2.2-1.9-3.7-2.1c-0.1,0-0.2,0-0.3,0c-0.1,0-0.2,0.1-0.3,0.3C41,47,41.2,47,41.2,47.1c0.2,0.1,0.3,0.3,0.5,0.4
					c0.4,0.7,0.2,1.2-0.6,1.2c-0.4,0-0.8,0-1.2,0c-0.3,0-0.4,0.1-0.4,0.4C39.6,49.5,39.7,49.8,40,50.1z M38.6,20.7
					c0.9,1.3,2,2.1,3.6,2.4c0.3,0.1,0.5,0.1,0.8,0c0.2-0.1,0.3-0.1,0.1-0.3c-0.3-0.3-0.5-0.6-0.7-0.9c-0.2-0.5-0.4-1,0-1.4
					c0.4-0.5,0.9-0.3,1.4-0.2c0.3,0.1,0.6,0.3,0.8,0.5c0.3,0.3,0.5,0.2,0.7-0.1c0.2-0.3,0.1-0.6,0.1-0.8c0.1-0.8-0.2-1.3-0.6-1.9
					c-0.4-0.6-1.1-0.9-1.7-1.3c-0.7-0.5-1.5-0.3-2.2-0.1c-0.3,0.1-0.3,0.3-0.2,0.5c0.1,0.2,0.2,0.4,0.2,0.6c0,0.7-0.7,1-1.3,0.7
					c-0.3-0.2-0.5-0.1-0.8,0.1C38.1,19,38.1,19.9,38.6,20.7z M40.4,52.2c1.1,0.5,2.2,0.7,3.4,0.7c0.4,0,0.7-0.1,1-0.3
					c-0.2-0.1-0.3-0.1-0.4-0.1c-0.9,0.2-1.8,0-2.6-0.5c-1.4-0.7-2.8-1.4-2.8-3.4c-0.2,0.2-0.3,0.3-0.3,0.5
					C38.5,50.2,39.4,51.8,40.4,52.2z M40.3,46.6c0.2,0.1,0.2,0,0.3-0.1c0.2-0.4,0.5-0.5,1-0.4c0.6,0.1,1.1,0.2,1.6,0.4
					c1.3,0.5,2.3,1.3,2.8,2.7c0.1,0.3,0.3,0.5,0.6,0.6c-0.1-0.3-0.2-0.5-0.2-0.8c-0.3-1.4-1.2-2.3-2.6-2.8c-0.9-0.3-1.9-0.2-2.8-0.3
					c-0.3,0-0.6,0.1-0.8,0.3c-0.1,0.1-0.3,0.2-0.2,0.3C40.1,46.6,40.2,46.6,40.3,46.6z M38,18c-0.4,0.2-0.5,0.6-0.6,1
					c-0.2,1,0.2,1.8,0.8,2.6c1.1,1.5,2.6,2.2,4.5,2.3c0.3,0.1,0.6-0.1,0.9-0.2c0.1,0,0.3,0,0.2-0.2c-0.1-0.2-0.2-0.1-0.3,0
					c-0.5,0.2-0.9,0.2-1.4,0.1c-1.3-0.3-2.6-0.8-3.4-2c-0.3-0.4-0.6-0.9-0.9-1.3c-0.3-0.5-0.1-1.7,0.4-2.2c0.2-0.2,0.3-0.3,0.5-0.5
					c0.1-0.2,0-0.4-0.2-0.3c-0.1,0.1-0.7,0-0.4,0.4C38.2,17.8,38.1,18,38,18z M35.7,45.7c0,0.1,0.1,0.2,0.2,0.2c0.1,0,0.1,0,0.1-0.1
					c0-0.1-0.1-0.2-0.2-0.2C35.8,45.6,35.7,45.6,35.7,45.7z M35.9,46.5c-0.1,0-0.2,0.1-0.2,0.2c0,0.1,0,0.2,0.1,0.2
					c0.4,0.1,0.6,0.5,1,0.5c0.3,0,0.5,0.1,0.8,0.2c1,0.4,2.1,0.6,3.2,0.6c0.2,0,0.4,0.1,0.5-0.2c0.1-0.2-0.1-0.4-0.3-0.5
					c-0.1-0.1-0.2-0.1-0.3-0.2c-1.3-0.6-2.6-0.8-3.9-0.9C36.4,46.5,36.1,46.5,35.9,46.5z M35.7,10.5c0,0.2,0.1,0.4,0.2,0.6
					c0.4,1.2,0.9,2.4,1.6,3.5c0.6,1,1.2,1.9,2,2.8c0.2,0.2,0.5,0.4,0.7,0.2c0.3-0.2,0.1-0.5,0-0.7c-0.7-1-1.1-2.1-1.7-3.2
					c-0.5-1.1-1.1-2.1-1.9-3c-0.2-0.2-0.4-0.4-0.6-0.4C35.7,10.3,35.7,10.4,35.7,10.5z M35.5,68.6c0.1,0,0.3,0.1,0.4,0.1
					c0.1,0,0.2,0,0.3,0c1.3,0.1,2.3-0.5,3.3-1.2c0.7-0.5,1.3-1.2,1.7-2c0.2-0.5,0.1-1.2-0.2-1.4c0.1,0.6,0,1-0.3,1.5
					c-0.5,0.8-1.1,1.3-1.8,1.8c-0.2,0.2-0.4,0.4-0.7,0.5C37.3,68.2,36.4,68.4,35.5,68.6z M34.1,65.1c0,0.3-0.1,0.8,0.6,0.7
					c0.1,0,0.2,0.1,0.3,0.2c0.3,0.5,0.2,1-0.1,1.4c-0.2,0.3-0.1,0.4,0.1,0.5c0.2,0.1,0.4,0.1,0.6,0.1c1.6-0.1,3-0.7,4.1-2
					c0.3-0.3,0.6-0.7,0.7-1.1c0.2-0.5,0.1-0.6-0.4-0.5c-1,0.1-1.2-0.3-1-1.2c0,0,0-0.1,0-0.1c0.1-0.2,0-0.4-0.2-0.5
					c-0.5-0.3-1-0.3-1.6-0.3c-0.2,0-0.3,0-0.5,0C35.1,62.3,34,63.4,34.1,65.1z M26.3,3.7c-0.1,0.2,0,0.3,0.1,0.5
					c0.4,0.5,0.8,1,1.4,1.3c0.6,0.4,1.2,0.9,1.8,1.3c0.6,0.5,1.2,1,2,1c0.1,0,0.1,0,0.2,0c0.1,0,0.3,0,0.4-0.2
					c0-0.2-0.2-0.1-0.3-0.2c-0.1-0.1-0.2-0.2-0.2-0.3c0-0.2-0.2-0.4-0.4-0.5c-0.8-0.6-1.5-1.2-2.3-1.8c-0.7-0.5-1.3-1-2.2-1.2
					C26.6,3.6,26.4,3.6,26.3,3.7z M23.4,1.4c1.3-0.6,2.7-0.7,4,0c1.1,0.6,1.7,1.5,1.7,2.8c0.4-0.5,0.5-1.1,0.2-1.7
					c-0.6-1-1.5-1.5-2.6-1.7c-0.5-0.1-1-0.1-1.5-0.2c-1.9-0.2-3.4,0.5-4.5,2.1c-0.3,0.4-0.6,0.9-0.3,1.5c0.1,0.2,0.2,0.1,0.4,0.1
					C21,4.3,21,4.2,21,4c-0.1-0.2,0-0.4,0.1-0.6C21.5,2.4,22.5,1.9,23.4,1.4z M26.2,51.2c-0.2,0.1-0.4,0.2-0.3,0.5
					c0.1,0.2,0.3,0.1,0.5,0.1c1.3-0.4,2.6-0.7,3.8-1.3c0.3-0.2,0.7-0.3,0.9-0.7c0.1-0.1,0.2-0.2,0.2-0.4c-0.1-0.2-0.3-0.2-0.4-0.1
					c-0.3-0.1-0.4,0-0.6,0.2c-0.7,0.4-1.4,0.8-2.2,1.1C27.4,50.7,26.7,50.8,26.2,51.2z M25.6,48.2c0.4,0.6,0.7,1.2,0.9,1.9
					c0,0.1,0,0.2,0.2,0.2c0.1,0,0.2-0.1,0.2-0.3c0-0.3,0-0.6-0.1-1c-0.3-0.8-0.9-1.4-1.5-1.9c-0.9-0.8-2.1-1.1-3.3-1.1
					c-0.5,0-1,0.2-1.5,0.5c0.2,0.1,0.3,0.1,0.3,0C22.6,45.7,24.7,47,25.6,48.2z M25.1,52.8c0.2-0.1,0.4-0.3,0.7-0.4
					C25.5,52.3,25.5,52.3,25.1,52.8z M23.9,68.3c0.2,1.5,1.5,2.2,3.2,2.3c1.1,0.1,3-0.9,3-1.6c-0.8,1-2,1.3-3.2,1.2
					C25.6,70,24.7,69.3,23.9,68.3z M26.8,63.7c-1-0.2-1.7,0.1-2.4,0.8c-0.1,0.1-0.3,0.3-0.1,0.4c0.2,0.2,0.2-0.2,0.3-0.2
					c0.1,0,0.1-0.1,0.1-0.1c0.7-0.5,1.4-0.5,2.1-0.3c1.2,0.3,2.2,0.8,3.1,1.8c-0.1-0.4-0.1-0.4-0.3-0.7C28.9,64.5,28,63.9,26.8,63.7
					z M25.2,68.7c0.5,0.7,1.3,0.7,1.9,0.9c0.5-0.1,1-0.1,1.5-0.3c0.3-0.1,0.5-0.3,0.7-0.5c0.2-0.2-0.1-0.4-0.1-0.5
					c0-0.3-0.1-0.6,0.2-0.8c0.4-0.4,0.5-0.8,0-1.2c-0.5-0.4-1-0.8-1.6-1c-0.6-0.2-1.2-0.6-1.9-0.4c-0.3,0.1-0.6,0.1-0.8,0.5
					c-0.1,0.3,0.2,0.4,0.4,0.6c0.3,0.4,0.2,0.8-0.3,1C25,66.9,24.8,67,24.6,67c-0.2,0-0.3,0.1-0.3,0.3c0,0.3,0.1,0.6,0.3,0.9
					C24.8,68.4,25.1,68.5,25.2,68.7z M27.1,5.7c-0.6-0.4-1.1-0.9-1.4-1.6c-0.3-0.6,0-1,0.6-1c0.7-0.1,1.3,0.4,1.9,0.6
					c0.1,0,0.2,0.2,0.4,0.1c0.1-0.1,0-0.3,0-0.5c-0.3-0.9-1.1-1.3-1.9-1.7c-1-0.4-2.1-0.2-3,0.3c-0.5,0.2-0.9,0.6-1.3,0.9
					C22,3,21.8,3.2,21.6,3.5c-0.1,0.3,0,0.5,0.3,0.6c0.9,0.4,1,1.3,0.3,2c-0.5,0.4-0.5,0.7,0,1.1c0.6,0.5,1.2,0.7,2.1,0.7
					c0.4,0.1,0.8-0.2,1.2-0.3c0.7-0.1,1.3-0.4,1.7-1C27.5,6.2,27.4,6,27.1,5.7z M26.6,7.8c-0.6,0.3-1.3,0.4-1.9,0.5
					c-1.3,0.2-2.5-0.1-3.3-1.3c-0.1-0.1-0.1-0.2-0.3-0.2c0.1,0.4,0.2,0.7,0.4,0.9c1.1,1.3,3.1,1.9,4.7,0.9c0.8-0.4,1.4-1,1.7-1.8
					c0.1-0.1,0.2-0.3,0.1-0.4c-0.1-0.1-0.2,0.1-0.3,0.3C27.4,7.1,27.1,7.5,26.6,7.8z M25.5,51c0.5-0.6,0.5-0.6,0.2-1.4
					c-0.1-0.1-0.1-0.3-0.2-0.4c-0.7-1.4-1.7-2.1-3.3-2.3c-0.1,0-0.3,0-0.4,0c-0.1,0-0.2,0-0.4,0.1c-0.5,0.1-0.5,0.2-0.3,0.6
					c0.2,0.5,0.2,1-0.1,1.3c-0.3,0.3-0.7,0.1-1.1,0c-0.6-0.3-0.7-0.2-0.7,0.5c0,0.2,0.1,0.5,0.2,0.7c0.8,1.4,1.9,2.4,3.7,2.5
					c1,0,1.7-0.3,2.1-1.2C25.3,51.2,25.4,51.1,25.5,51z M13.2,21.3c-0.5,1.1-1.1,2.1-2.5,2.3c-0.1,0-0.3,0-0.3,0.2
					c0,0.2,0.2,0.1,0.3,0.1c0.1,0,0.2,0,0.2,0c1.4-0.2,2.3-1.1,2.8-2.2c0.5-1,0.6-2,0.2-3.1c0-0.1-0.1-0.2-0.2-0.2
					c-0.1,0-0.1,0.2-0.1,0.3c0,0.2,0,0.3,0,0.5C13.8,19.9,13.4,20.6,13.2,21.3z M15.5,5.5c-2,0.4-4,2.7-4,4.7c0,0.8,0.1,1.5,0.7,2
					c0.2,0.2,0.3,0.2,0.5,0c0.1-0.1,0.2-0.3,0.3-0.4c0.1-0.1,0.1-0.3-0.1-0.3c-0.6-0.3-0.7-0.8-0.7-1.4c0-0.1,0-0.2,0-0.3
					c0-0.7,0.5-1.2,0.8-1.8c0.3-0.6,0.6-1.3,1.2-1.6C15,6,15.8,5.6,16.7,6.1c0.1,0.1,0.2,0.1,0.3,0c0.1-0.1-0.1-0.2-0.1-0.2
					C16.4,5.6,16,5.4,15.5,5.5z M61.6,33.4c0.1,0.9,1,1.9,1.9,2.1c0.5,0.1,1.1,0.3,1.6,0.2c1.2,0.2,2.1-0.3,2.8-1.3
					c0.1-0.1,0.2-0.2,0.2-0.4c0.4-1.2-0.9-2.5-1.8-2.8c-1.1-0.3-2.3-0.3-3.4,0c-0.4,0.1-0.7,0.3-0.7,0.8c0,0.5-0.1,0.9-0.6,1.1
					C61.6,33.2,61.6,33.3,61.6,33.4z M60.7,33c-0.1,0-0.2,0.1-0.1,0.1c0.1,0.5-0.2,1.1,0.3,1.6c0.8,0.9,1.8,1.6,2.9,1.9
					c1.4,0.4,3,0.2,4.2-0.7c1-0.7,1.5-2.1,1.1-3.3c-0.4-1.1-1.3-1.8-2.4-2.2c-0.9-0.3-1.8-0.6-2.6-0.4c-1.5-0.1-2,0.3-2.7,0.8
					c-0.1,0.1-0.2,0.1-0.2,0.3c0,0.1,0.2,0.1,0.3,0.2c0.2,0.1,0.2,0,0.4-0.1c0.5-0.3,0.9-0.5,1.5-0.6c1.5-0.2,2.9-0.2,4.2,0.7
					c1.1,0.9,2,2.3,0.7,3.8c-0.4,0.5-0.7,0.9-1.4,1.1c-1.1,0.2-2.1,0.2-3.2,0c-1.2-0.2-2.2-0.9-2.5-2.2c-0.1-0.3-0.2-0.5-0.2-0.8
					C60.9,33,60.8,33,60.7,33z M55.2,29.3c-0.2,0.1-0.4,0-0.5,0.2c-0.1,0.2,0.1,0.3,0.3,0.5c0,0,0.1,0.1,0.1,0.1
					c0.8,0.6,1.7,0.9,2.6,1.2c1.2,0.5,2.3,0.9,3.5,1.3c0.2,0.1,0.4,0.1,0.4-0.2c0-0.2,0-0.5-0.3-0.6c-1.3-0.4-2.4-1.2-3.6-1.7
					C56.9,29.7,56,29.5,55.2,29.3z M49.4,24.3c-0.6,0.4-0.6,0.4-0.1,0.9c0,0,0.1,0,0.2,0.1c0.1-0.5,0.1-0.5,0.6-0.7
					c0.6-0.2,1.1-0.1,1.7,0.1c0.9,0.3,1.7,0.7,2.4,1.4c0.7,0.7,1.3,1.5,1.5,2.6c0,0.2,0.1,0.2,0.2,0.2c0.2,0,0.2-0.1,0.2-0.2
					c0-0.3,0-0.6-0.1-0.8c-0.1-0.9-0.3-1.7-1-2.2c-0.8-0.6-1.6-1.2-2.5-1.6c-1-0.4-2-0.7-2.9,0.2C49.5,24.2,49.4,24.2,49.4,24.3z
					 M50.9,31.1c-1.1-0.1-1.9-0.7-2.6-1.5c-0.5-0.6-0.7-1.7-0.3-2.4c0-0.1,0.2-0.2,0-0.3c-0.1-0.1-0.2-0.2-0.4-0.2
					c-0.1,0-0.1,0.2-0.1,0.3c0,0.1,0,0.2-0.1,0.2c-0.5,0.7-0.4,1.4,0,2c0.6,0.9,1.3,1.6,2.3,2.1c0.9,0.4,1.8,0.4,2.8,0.5
					c0.9,0,1.7-0.4,2.5-0.8c0.1-0.1,0.2-0.2,0.1-0.3c-0.1-0.1-0.2-0.2-0.3,0c-0.4,0.4-0.9,0.5-1.4,0.6
					C52.5,31.5,51.7,31.2,50.9,31.1z M47.4,60.9c0.5-0.8,0.8-1.7,1-2.5c0.2-0.8,0.1-1.7-0.3-2.5c-0.2,0.2-0.2,0.3-0.1,0.4
					c0.3,0.3,0.2,0.7,0.2,1.1c-0.2,0.8-0.5,1.5-0.8,2.2c-0.3,0.6-0.6,1.3-1.3,1.6c-0.2,0.1-0.5,0.3-0.7,0.5
					c-0.5,0.4-1.1,0.4-1.3-0.1c-0.1,0.2-0.4,0.3-0.5,0.6c0.3,0,0.5,0.2,0.8,0.3C45.4,62.5,46.9,61.7,47.4,60.9z M49.6,26.2
					c-1.6-1.6-3.1-3.3-4.9-4.8c-0.4-0.4-0.8-0.8-1.5-0.8c-0.3,0-0.6,0.1-0.5,0.5c0,0.3,0.2,0.5,0.3,0.7c0.8,1,1.6,1.9,2.6,2.7
					c0.5,0.4,1.1,0.8,1.6,1.2c0.5,0.4,1.1,0.8,1.8,1.1c0.2,0.1,0.4,0.1,0.6-0.1C49.8,26.6,49.8,26.4,49.6,26.2z M48.6,27.4
					c0,0.3-0.2,0.6-0.2,0.9c0,0.2,0,0.4,0.1,0.5c0.3,0.6,0.8,1,1.3,1.3c0.7,0.4,1.5,0.4,2.2,0.6c0.7,0.2,1.3,0,2-0.2
					c0.3-0.1,0.4-0.2,0.2-0.5c-0.3-0.5-0.2-1,0.4-1.1c0.4-0.1,0.5-0.3,0.3-0.7c-0.2-0.3-0.3-0.5-0.5-0.8c-0.8-1.3-2-2.1-3.5-2.4
					c-0.2,0-0.4,0-0.6,0.1c-0.3,0.1-0.5,0.7-0.3,0.9c0.4,0.3,0.3,0.7,0.1,1c-0.2,0.4-0.5,0.5-1,0.3c-0.1,0-0.2-0.1-0.3-0.1
					C48.7,27.2,48.6,27.3,48.6,27.4z M35.7,13.1c-0.9,0.3-1.7,0.5-2.6,0.2c-0.4-0.1-0.8-0.2-1.2-0.4c-1.2-0.4-2-1.5-2.1-2.8
					c0-0.5,0.2-0.9,0.2-1.4c-0.8,0.6-0.8,1.9-0.5,2.5c0.5,1,1.2,1.7,2.3,2.2c1,0.4,2,0.4,3.1,0.4c0.4,0,0.7-0.2,1-0.4
					c0.1-0.1,0.2-0.1,0.1-0.3C35.9,12.9,35.8,13,35.7,13.1z M34.1,66.5c-1.3,0.3-2.6,0.6-3.9,1.1c-0.2,0.1-0.3,0.2-0.3,0.4
					c0,0.2,0.2,0.3,0.4,0.3c0.1,0,0.2,0,0.2-0.1c1.1-0.3,2.1-0.9,3.3-1.2c0.1,0,0.3-0.1,0.4-0.2c0.1-0.1,0.2-0.2,0.2-0.3
					C34.4,66.4,34.2,66.5,34.1,66.5z M33.4,64.7c0.1-0.7,0.3-1.5,0.9-2c1.1-1.1,2.4-1.2,3.8-1.1c0.4,0,0.8,0.1,1.1,0.4
					c0.1,0.1,0.2,0.3,0.4,0.1c0.1-0.1-0.1-0.3-0.2-0.4c-0.1,0-0.1-0.1-0.2-0.1c-0.7-0.2-1.3-0.5-2-0.5c-1.6,0-3,0.3-3.8,1.9
					c-0.3,0.6-0.3,1.3-0.2,2c0.1-0.1,0.1-0.1,0.1-0.1C33.3,64.9,33.3,64.8,33.4,64.7z M34,44.9c-0.8-0.2-1.8-0.1-2.5,0.4
					c-1.8,1.1-2.4,2.7-2.1,3.7c0-1.5,0.6-2.7,2-3.3c1.1-0.5,2.2-0.8,3.3-0.4c0.2,0.1,0.4,0.2,0.6,0.3c0,0,0,0,0,0v0
					c0,0,0-0.1-0.1-0.1c0,0-0.1-0.1-0.1-0.1c-0.2-0.2-0.5-0.3-0.8-0.4C34.2,44.9,34.1,44.9,34,44.9z M34.2,45.7
					c-0.6-0.1-1.1,0-1.6,0.1c-1.3,0.3-2.2,0.9-2.5,2.3c0,0.2-0.2,0.5,0,0.6c0.2,0.2,0.4-0.1,0.6-0.1c0.5-0.2,0.9-0.1,1.1,0.3
					c0.3,0.4,0.2,0.7-0.2,1.1c-0.1,0.1-0.2,0.2-0.4,0.3c-0.3,0.2-0.2,0.3,0.1,0.4c0.4,0.2,0.8,0.3,1.4,0.3c0.8,0.1,1.6-0.4,2.1-1.2
					c0.4-0.7,1.1-1.4,0.5-2.4c0,0,0-0.1,0-0.1c0.1-0.4-0.2-0.8,0-1.2c0,0-0.1-0.1-0.1-0.1C34.8,46,34.6,45.8,34.2,45.7z M33.5,5.1
					c0,0-0.1,0-0.1,0c-0.6-0.2-0.9,0.3-1.4,0.5c-0.2,0.1-0.2,0.3-0.3,0.4c0,0.1-0.1,0.2,0,0.3c0.1,0.1,0.2-0.1,0.3-0.1
					c0.4-0.6,1.1-0.8,2.1-0.8C35,5.5,36,6,36.7,7c0.7,1,1,2.2,1.2,3.3c0.1,0.3,0,0.5-0.1,0.8c-0.1,0.1-0.2,0.2-0.1,0.3
					c0.2,0.1,0.2-0.1,0.3-0.2c0.4-0.7,0.5-1.5,0.3-2.3c-0.2-0.9-0.7-1.6-1.2-2.3c-0.8-1-1.7-1.7-3-1.9C33.9,4.8,33.5,4.5,33.5,5.1z
					 M31.1,51.8c1.3,0.7,2.5,0.5,3.8-0.5c0.9-0.7,1.6-1.4,1.6-2.7c0-0.1,0-0.2,0-0.2c0-0.2,0-0.5-0.3-0.5c-0.2,0-0.2,0.3-0.2,0.4
					c-0.3,1.3-1,2.4-2.2,2.9c-1.1,0.5-2.3,0.5-3.3-0.3c-0.1-0.1-0.1-0.2-0.2-0.1c-0.1,0.1,0,0.2,0,0.2
					C30.5,51.5,30.8,51.7,31.1,51.8z M31.5,12.1c1.2,0.6,2.5,0.9,3.9,0.4c0.3-0.1,0.4-0.2,0.3-0.6c-0.2-0.6-0.4-1.1-0.4-1.7
					c0-0.4,0.1-0.5,0.5-0.6c0.3-0.1,0.5,0,0.7,0.2c0.3,0.3,0.5,0.6,0.8,0.9c0.2-0.3,0.2-0.5,0.1-0.7c-0.2-0.8-0.4-1.5-0.8-2.2
					c-0.8-1.5-1.7-2-3.1-1.9c-0.4,0-0.7,0.2-1,0.5c-0.2,0.1-0.2,0.3,0,0.5c0.4,0.5,0.3,1.2-0.4,1.3c-0.2,0-0.4,0.1-0.5,0
					C31,8.2,30.8,8.5,30.7,9c0,0.2-0.1,0.3-0.1,0.5C30.3,10.4,30.5,11.6,31.5,12.1z M33.5,65.9C33.5,65.9,33.5,66,33.5,65.9
					c0.1,0.1,0.1,0.1,0.1,0C33.6,65.9,33.6,65.9,33.5,65.9C33.5,65.9,33.5,65.9,33.5,65.9z M10.6,23c0.5-0.1,0.9-0.2,1.3-0.5
					c0.9-1,1.3-2.2,1.3-3.5c0-0.6-0.1-1.2-0.6-1.7c-0.7-0.7-0.8-0.7-1.3,0.1c-0.3,0.4-0.6,0.9-1.1,1.1c-0.6,0.3-1.1,0-1.1-0.7
					c0-0.6,0.4-1.1,0.5-1.6c0-0.1,0.3-0.2,0.1-0.4c-0.1-0.1-0.3-0.1-0.5-0.1c-0.1,0-0.3,0.1-0.4,0.1c-0.6,0.3-1,0.8-1.4,1.3
					C6.8,18,6.8,19,6.7,19.9c-0.1,1.1,0.6,1.7,1.2,2.4c0.2,0.2,0.4,0.2,0.5-0.2c0-0.2,0.1-0.3,0.3-0.3c0.8-0.3,1.3,0,1.5,0.8
					C10.3,22.8,10.3,23,10.6,23z M11.4,33.9c0.1,0.3,0.2,0.6,0.3,0.8c0.6,1.4,0.9,2.8,1.7,4.2c0.2,0.5,0.6,0.8,1,1.2
					c0.1,0.1,0.1,0.1,0.2,0.1c0.1,0,0.1-0.1,0.1-0.3c-0.1-0.2-0.2-0.5-0.3-0.8c-0.7-1.4-1.4-2.9-1.9-4.4c-0.1-0.4-0.2-0.8-0.5-1.1
					c-0.1-0.1-0.3-0.2-0.5-0.1C11.3,33.6,11.4,33.7,11.4,33.9z M11.3,55.8c1,0.7,2,0.5,3.1,0.4c0.1,0,0.3-0.1,0.2-0.3
					c-0.1-0.2-0.2-0.2-0.3-0.2c-0.7,0.1-1.3,0-1.9-0.2c-1.3-0.4-2.6-2-2.5-3.2c0-0.2,0-0.4-0.1-0.6c-0.9,0.9-0.5,2.9,0.7,3.5
					C10.8,55.5,11.1,55.7,11.3,55.8z M12.6,38.4c-0.4-0.9-0.7-1.8-1-2.8c-0.7,0.6-1.4,0.5-2.2,0.2c-1.2-0.5-2.2-1.1-2.7-2.3
					c-0.6-1.4-0.7-2.7-0.1-4.1c0.2-0.5,0.7-0.8,1.1-1c0.3-0.2,0.4-0.3,0.3-0.6C8,26.4,7.9,25.2,8.2,24c0-0.1,0.1-0.3-0.1-0.3
					c-0.1-0.1-0.2,0-0.3,0.1c-0.3,0.2-0.6,0.1-0.9,0c-1.2-0.6-1.8-1.6-1.9-2.9c-0.2-1.6,0.4-3,1.2-4.4c0.4-0.7,0.9-1.3,1.6-1.8
					c0.8-0.5,1.6-0.6,2.4-0.2c0.3,0.1,0.5,0.1,0.7-0.2c0.3-0.4,0.6-0.7,1-1.1c0.2-0.2,0.2-0.3,0-0.4c-1.3-1.1-1.3-2.6-0.7-3.9
					C11.9,7,13.2,5.6,15.3,5c0.6-0.2,1.2,0,1.7,0.3c0.4,0.3,0.8,0.3,1.3,0C18.8,5,19.5,4.8,20,4.4c-0.5-0.5-0.4-0.9,0.1-1.8
					c0.7-1.1,1.7-1.9,2.9-2.3c2.2-0.7,4.3-0.4,6.1,1c0.9,0.7,1.3,1.7,0.6,3c-0.2,0.3-0.1,0.5,0.1,0.6c0.3,0.2,0.6,0.5,0.9,0.7
					c0.2,0.2,0.4,0.2,0.5-0.1C31.4,5.3,31.8,5.2,32,5c1.2-1.2,2.6-0.9,3.8-0.2c1.6,1,2.8,2.4,3.2,4.3c0.1,0.6,0,1.2-0.2,1.8
					c-0.1,0.3-0.2,0.8-0.5,1c-0.1,0.1,0,0.2,0,0.4c0.4,0.8,0.8,1.6,1.3,2.4c0.1,0.2,0.2,0.2,0.4,0.1c0.6-0.4,1.3-0.7,2.1-0.6
					c1.3,0.1,2.3,0.7,3,1.7c0.4,0.6,0.8,1.2,1.2,1.8c0.6,0.9,0.8,2,0.6,3c-0.1,0.4-0.2,0.7-0.5,1c-0.2,0.2-0.2,0.3,0,0.4
					c0.5,0.4,1,0.9,1.4,1.4c0.4,0.4,1,0.5,1.3,0c0.3-0.5,0.8-0.5,1.3-0.6c0.7-0.1,1.5,0.1,2.1,0.4c1,0.4,1.8,1,2.6,1.7
					c0.8,0.6,1.1,1.6,1.3,2.5c0.1,0.4,0.1,0.8,0.1,1.2c0,0.2,0.1,0.3,0.3,0.4c1.1,0.4,2.3,0.9,3.3,1.5c0.3,0.1,0.4,0.1,0.5-0.2
					c0.4-0.7,1.1-1.1,1.9-1.1c1,0,2-0.1,3,0.1c1.1,0.2,2.1,0.5,2.9,1.2c0.7,0.6,1.3,1.4,1.3,2.5c-0.1,0.8,0,1.6-0.6,2.3
					c-0.8,0.9-1.7,1.5-2.9,1.6c-0.7,0.1-1.3,0.1-2,0.1c-0.6,0-1.1-0.3-1.6-0.6c-0.7-0.3-1.3-0.7-1.8-1.2c-0.5-0.4-0.9-0.9-0.9-1.6
					c0-0.3,0.1-0.6,0-0.9c0-0.1-0.1-0.2-0.2-0.3c-1.2-0.5-2.4-1-3.6-1.5c-0.2-0.1-0.3-0.1-0.5,0c-1,0.8-2.1,1.2-3.4,1.2
					c-1.4-0.1-2.8-0.4-3.9-1.3c-0.7-0.6-1.3-1.2-1.6-2c-0.3-0.9-0.1-1.7,0.3-2.5c0.1-0.2,0.1-0.3-0.1-0.4c-0.8-0.7-1.8-1.2-2.6-2
					c-0.1-0.1-0.2-0.1-0.4,0c-1.2,0.7-2.5,0.4-3.7-0.1c-1.7-0.7-2.8-1.9-3.4-3.6c-0.3-0.8-0.2-1.7,0.2-2.5c0.2-0.4,0.3-0.9,0.8-1
					c0.1,0,0.2-0.2,0.1-0.4c-0.6-0.8-1-1.6-1.5-2.5c-0.1-0.2-0.2-0.2-0.4-0.1c-2,0.8-4,0.5-5.7-0.8c-0.7-0.5-1.3-1.2-1.5-2
					c-0.3-0.7-0.3-1.5,0.2-2.1c0.2-0.4,0.4-0.8,0.7-1.1c0.1-0.1,0-0.2-0.1-0.2c-0.3-0.2-0.6-0.4-0.9-0.7c-0.2-0.2-0.3-0.1-0.4,0.1
					c-0.2,0.3-0.4,0.7-0.6,1c-1.1,1.2-2.6,1.8-4.2,1.5c-1.3-0.2-2.4-0.9-3-2.2C20.5,7.1,20,7,19.7,7.3c-0.1,0.2,0,0.2,0.1,0.3
					c0.7,0.5,0.7,1.1,0.7,1.8c0,1.3-0.3,2.6-1.3,3.5c-0.8,0.8-1.7,1.5-2.9,1.6c-0.4,0-0.8,0.2-1.3,0.2c-0.5,0-0.9-0.1-1.2-0.4
					c-0.2-0.1-0.3-0.1-0.4,0c-0.1,0.1-0.2,0.2-0.3,0.4c-0.5,0.7-0.5,0.7,0.1,1.2c0.2,0.2,0.4,0.4,0.5,0.6c0.7,1.2,1.3,2.5,1,3.9
					c-0.4,1.8-1.6,3.8-3.9,4.1c-0.4,0-0.5,0.2-0.5,0.5c0.1,0.7,0.1,1.4,0.2,2.1c0,0.3,0.2,0.4,0.4,0.3c1.2-0.4,2.4,0.2,3.1,1.1
					c1,1.3,1.2,2.7,1.1,4.2c0,0.2,0,0.3-0.1,0.5c-0.5,0.6-0.8,1.3-1.5,1.7c-0.2,0.1-0.2,0.3-0.1,0.5c0.3,0.6,0.5,1.3,0.8,1.9
					c0.1,0.2,0.2,0.3,0.4,0.2c0.8-0.4,1.7-0.2,2.4,0.1c1.6,0.8,2.9,2.1,3.2,3.9c0.2,1,0,1.9-0.7,2.8c0,0,0,0,0,0
					c-0.7,0.3-0.2,0.6,0,0.8c0,0,0.1,0.1,0.1,0.1C20,46,20,46,20.7,45.7c0.8-0.4,1.6-0.3,2.3-0.1c1.3,0.3,2.4,1,3.3,1.9
					c0.6,0.6,0.9,1.4,1,2.3c0,0.3,0.1,0.3,0.4,0.2c0.1,0,0.3-0.1,0.4-0.1c0.6-0.2,0.5-0.2,0.4-0.8c-0.1-0.7-0.1-1.4,0.3-2
					c0.9-1.6,2.2-2.7,4.1-2.8c1.1,0,2.1,0.4,3,0.9c0,0,0.1,0.1,0.1,0.1c0.2,0.6,0.7,0.6,1.2,0.6c0.5,0,1,0.2,1.5,0.3
					c0.3,0.1,0.4,0,0.6-0.2c0.3-0.4,0.7-0.6,1.1-0.7c1.1-0.1,2.2-0.2,3.2,0.2c1.5,0.6,2.7,1.4,3.1,3.1c0.1,0.5,0.5,0.9,0.3,1.4
					c-0.1,0.2,0.1,0.3,0.2,0.4c0.5,0.7,0.8,1.6,0.8,2.5c0,0.5,0,1,0,1.6c0,0.2,0,0.3,0.1,0.5c0.9,0.8,1,1.9,0.8,3
					c-0.2,1-0.5,2-1,2.9c-0.7,1.2-1.8,1.6-3,1.9c-0.2,0-0.4,0-0.5,0.1c-0.3,0.1-0.4,0.1-0.6-0.2c-0.3-0.3-0.7-0.3-1.1-0.1
					c-0.1,0-0.1,0.1-0.2,0.1c-0.6,0.4-0.9,0.7-0.7,1.6c0.3,1-0.3,1.9-1,2.6c-1,1-2.2,1.8-3.6,2.1c-1,0.2-2,0.2-2.9-0.2
					c-0.5-0.2-0.6-0.5-0.6-1c-0.2,0-0.5,0.1-0.7,0.2c-0.6,0.2-1.1,0.4-1.7,0.6c-0.2,0.1-0.4,0.2-0.5,0.4c-0.8,1.7-3.5,2.7-5.5,1.8
					c-0.7-0.3-1.5-0.6-1.8-1.4c-0.4-1-1.1-2-0.7-3.2c0-0.1,0-0.2-0.1-0.3c-0.1-0.1-0.2-0.1-0.3-0.2c-0.6-0.7-1.2-0.8-2.2-0.5
					c-1.5,0.4-2.9-0.1-3.9-1.3c-0.8-0.9-1.3-2-1.4-3.3c-0.1-0.7,0.3-1.3,0.6-1.9c0.4-0.6,0.3-0.6,0-1.2c-0.4-0.8-0.9-0.9-1.7-0.7
					c-1.1,0.3-2.2,0.1-3.1-0.7c-0.2-0.1-0.3-0.2-0.5-0.3c-1.1-0.5-1.5-1.5-1.7-2.6c-0.1-0.7,0.2-1.5,0.7-2c0.3-0.3,0.2-0.5-0.1-0.7
					c-0.4-0.2-0.7-0.4-1.1-0.6c-0.2-0.1-0.4-0.1-0.6,0.1c-0.8,0.8-1.8,0.9-2.8,0.8c-0.7,0-1.4-0.4-2-0.8c-0.9-0.5-1.1-1.4-1.3-2.2
					c-0.2-0.7-0.3-1.4-0.5-2c-0.2-0.9,0.3-1.5,0.7-2.1c0.2-0.2,0.4-0.4,0.7-0.6c1.1-0.9,2.3-0.9,3.6-0.5C7.3,43,8.4,43.7,9,45
					c0.4,0.8,0.5,1.7,0,2.6C9,47.9,8.9,48,9.1,48.2c0.5,0.3,0.9,0.7,1.4,1.1c0.2,0.1,0.3,0.2,0.5,0c0.3-0.4,0.6-0.9,1.3-0.9
					c0.9,0,1.7,0.1,2.4,0.6c1.5,0.9,2.3,2.3,2.7,3.9c0.1,0.6-0.1,1.2-0.4,1.8c-0.2,0.4-0.2,0.7,0,1c0.2,0.3,0.3,0.7,0.5,1.1
					c0.1,0.2,0.2,0.3,0.4,0.2c1.3-0.3,2.4,0,3.4,0.9c0.9,0.9,1.7,1.9,1.9,3.2c0.1,0.9,0.1,1.7-0.5,2.4c-0.1,0.1-0.1,0.1,0,0.2
					c0.1,0.1,0.1,0.1,0.2,0.2c0.8,0.6,0.8,0.6,1.5-0.1c0.4-0.4,0.9-0.7,1.6-0.6c1.5,0.1,2.9,0.5,3.9,1.7c0.4,0.5,0.9,1,1.1,1.7
					c0.1,0.3,0.2,0.4,0.5,0.2c0.3-0.1,0.6-0.2,0.9-0.2c0.5-0.1,0.7-0.4,0.4-0.8c-0.7-1.2-0.3-2.2,0.3-3.2c0.7-1.2,1.9-1.4,3.1-1.6
					c1.1-0.2,2.2,0.1,3.2,0.5c0.1,0,0.2,0.1,0.3,0.2c0.3,0.5,0.6,0.3,1,0c0.3-0.2,0.6-0.3,0.9-0.5c0.1-0.1,0.3-0.1,0.1-0.3
					c-0.9-1.1-0.8-2.3,0-3.4c0.6-0.8,1.2-1.6,2.1-2.2c0.7-0.5,1.5-0.6,2.3-0.7c0.2,0,0.3,0,0.3-0.2c-0.1-0.7,0-1.4-0.5-2
					c-0.1,0.9-0.8,1.2-1.5,1.3c-1.2,0.2-2.4,0-3.6-0.4c-1.6-0.6-2.3-1.8-2.6-3.3c-0.1-0.3-0.1-0.6,0-0.8c0.1-0.3,0-0.4-0.3-0.5
					c-0.2-0.1-0.5-0.4-0.7-0.3c-0.2,0.1,0,0.5,0,0.7c-0.1,0.9-0.4,1.7-1.1,2.4c-0.8,0.7-1.6,1.4-2.7,1.6c-1.4,0.3-2.6-0.2-3.5-1.3
					c-0.1-0.2-0.2-0.2-0.4-0.2c-0.8,0.3-1.8,0.5-2.5,1c-0.6,0.3-1.2,0.7-1.6,1.2c-0.3,0.4-0.9,0.5-1.4,0.6c-0.8,0.1-1.7,0.1-2.3-0.3
					c-1.6-0.8-2.9-1.9-3.4-3.7c-0.2-0.8-0.1-1.6,0.2-2.3c0.1-0.2,0.1-0.3-0.1-0.4c-0.3-0.4-0.6-0.7-1-1.1C17.2,46,17,46,16.8,46.1
					c-0.4,0.2-0.8,0.5-1.4,0.6c-1,0.2-1.8-0.3-2.6-0.8c-1-0.7-1.4-1.6-1.7-2.7C11,42.4,10.9,41.7,11,41c0.2-1,0.5-1.8,1.5-2.3
					C12.6,38.7,12.6,38.6,12.6,38.4z M10.6,53.2c0.5,1.3,1.5,2,2.9,2c0.7,0,0.7,0,0.7-0.7c-0.1-0.9,0.3-1.2,1.1-0.9
					c0.5,0.2,0.9,0,0.8-0.6c-0.1-0.5-0.2-1.1-0.7-1.5c-0.3-0.3-0.6-0.5-0.9-0.8c-0.6-0.5-1.3-0.7-2-0.6c-0.5,0-0.6,0.2-0.4,0.6
					c0.2,0.3,0,0.5-0.3,0.6c-0.1,0-0.3,0-0.4,0.1c-0.6,0.1-0.9,0.4-1,1.1C10.5,52.7,10.5,53,10.6,53.2z M12.5,13.3
					c-0.9,0.9-1.6,1.9-2.3,3c-0.3,0.4-0.5,0.9-0.6,1.4c0,0.2,0,0.3,0.2,0.4c0.3,0.1,0.4-0.1,0.6-0.3c0.6-0.8,1.2-1.6,1.7-2.5
					c0.2-0.4,0.5-0.8,0.8-1.1c0.6-0.7,1.1-1.4,1.4-2.2c0.1-0.2,0.2-0.4,0-0.5c-0.2-0.1-0.3,0.1-0.4,0.2C13.3,12.2,13,12.8,12.5,13.3
					z M11.7,40.4c-0.6,1.6,0.1,4.1,1.6,5.1c0.6,0.4,1.3,0.8,2.1,0.7c0.4,0,0.7-0.3,1.2-0.3c0.1,0,0.3-0.1,0.3-0.2
					c0-0.2-0.2-0.3-0.3-0.5c-0.1-0.1-0.2,0-0.3,0.1c-0.2,0.3-0.5,0.4-0.9,0.3c-0.6-0.1-1.1-0.3-1.6-0.6c-0.6-0.5-1.1-1.1-1.4-1.8
					c-0.7-1.3-0.4-2.8,0.7-3.8c-0.3-0.1-0.4,0-0.6,0.1C12.1,39.6,11.9,40,11.7,40.4z M11.8,27.9c-0.1,0-0.2,0-0.3,0c0,0,0,0-0.1,0
					c0,0,0,0,0,0c0,0-0.1,0-0.1,0.1c0,0,0,0,0,0c0,0,0,0,0,0s0,0,0,0c0,0-0.1,0-0.1,0c0,0,0,0,0,0c0,0,0.1,0,0.1,0c0,0,0,0,0,0h0
					c0,0,0,0,0,0c0.8,0,1.5,0.4,2,0.9c1,1.2,1,3.2,0.1,4.6c-0.1,0.1-0.2,0.2-0.3,0.1c-0.2-0.1-0.2-0.2-0.2-0.3
					c0-0.1,0.1-0.3,0.1-0.4c0.2-0.4,0.4-0.8,0.5-1.3c0.4-1.3-0.4-2.7-1.7-3c-0.5-0.1-1.1,0.2-1.2,0.8c-0.1,0.4-0.1,0.7-0.3,1.1
					C10,31,9.6,31,9.2,30.6c-0.2-0.2-0.4-0.4-0.5-0.6c-0.1-0.1-0.2-0.3-0.4-0.2c-0.3,0.2-0.6,0.4-0.6,0.8c-0.2,1.5,0.5,3.2,2.5,3.6
					c0.2,0,0.4,0,0.5-0.1c0.1-0.2,0.1-0.3,0-0.5c-0.1-0.2-0.1-0.3,0-0.5c0.6-0.5,1.1-0.5,1.6,0.1c0.2,0.2,0.4,0.5,0.4,0.8
					c0.1,0.5,0.4,0.5,0.7,0.1c0.2-0.3,0.4-0.5,0.6-0.7c0.2-0.2,0.4-0.5,0.4-0.8c0.2-1.6-0.2-3.1-1.5-4.2
					C12.8,28.2,12.3,28,11.8,27.9z M12.7,48.9c-0.6,0-0.9,0.4-1.3,0.7c0,0-0.1,0.1,0,0.2c0.1,0.1,0.1,0,0.2,0
					c0.1-0.1,0.3-0.2,0.5-0.2c1-0.1,1.9,0,2.7,0.7c0.3,0.3,0.6,0.7,1.1,0.8c0,0,0.1,0,0.1,0l0,0v0l0,0l0,0l0,0h0c0,0,0,0,0,0v0
					c-0.3-0.5-0.7-0.9-1.2-1.3C14.2,49.2,13.5,48.9,12.7,48.9z"/>
			</g>
			<g>
			</g>
		</g>
	</g>
</g>
</svg>
