<?xml version="1.0" encoding="utf-8"?>
<!-- Generator: Adobe Illustrator 18.0.0, SVG Export Plug-In . SVG Version: 6.00 Build 0)  -->
<!DOCTYPE svg PUBLIC "-//W3C//DTD SVG 1.1//EN" "http://www.w3.org/Graphics/SVG/1.1/DTD/svg11.dtd">
<svg version="1.1" id="Laag_1" xmlns="http://www.w3.org/2000/svg" xmlns:xlink="http://www.w3.org/1999/xlink" x="0px" y="0px"
	 viewBox="0 0 49.1 48.6" style="enable-background:new 0 0 49.1 48.6;" xml:space="preserve">
<style type="text/css">
	.st0{stroke:#000000;stroke-width:0.2284;stroke-miterlimit:10;}
</style>
<g>
	<g>
		<path class="st0" d="M47.9,47.4c-0.8-1.4-1.3-2.9-2.1-4.3c-0.5-0.9-0.9-1.7-1.4-2.6c-0.4-0.7-0.7-1.4-1.1-2.1
			c-0.2-0.5-0.4-0.9-0.8-1.3c-0.6-0.7-1.1-1.4-1.8-2.1c-0.6-0.6-1.3-1.3-1.9-1.9c0,0-0.1,0-0.1,0.1c-0.1,0.1-0.1,0.2-0.2,0.3
			c0.5,0.5,1,1.1,1.5,1.6c0.8,0.7,1.3,1.7,2.1,2.4c0.1,0.1,0.1,0.2,0.1,0.3c-0.1,0.7-0.5,1.6-1.4,1.8c-0.3,0.1-0.5,0.1-0.8,0.2
			c-0.3,0.1-0.5,0-0.8-0.2c-0.7-0.6-1.3-1.2-2.1-1.9c0,0.2,0,0.3-0.1,0.4c0.6,0.6,1.2,1.1,1.8,1.7c0.5,0.5,0.5,1,0,1.5
			c-0.4,0.4-0.8,0.7-1.4,0.9c-0.2,0.1-0.4,0-0.6-0.2c-0.8-0.7-1.5-1.5-2.4-2.3c-0.1,0-0.3,0.1-0.4,0.1c0.2,0.2,0.5,0.5,0.7,0.7
			c0.4,0.4,0.7,0.7,1.1,1.1c0.3,0.3,0.6,0.8,1,1c0.8,0.5,1.6,1,2.5,1.4c1.8,0.8,3.5,1.8,5.2,2.9c0.8,0.5,1.7,0.9,2.6,1.2
			c0.2,0.1,0.3,0,0.4-0.1C48.1,47.6,48,47.5,47.9,47.4z M43.7,45.3c-0.1,0.2-0.3,0-0.4,0c-1-0.5-1.9-1.1-2.9-1.6
			c-0.7-0.3-1.4-0.6-2-1c-0.2-0.1-0.2-0.2,0-0.3c0.3-0.2,0.7-0.4,1-0.7c0.3-0.3,0.5-0.6,0.6-1c0-0.3,0.1-0.3,0.4-0.4
			c0.2,0,0.5-0.1,0.7-0.2c0.8-0.2,1.4-0.8,1.7-1.5c0-0.1,0.1-0.2,0.1-0.3c0.3,0.3,0.3,0.7,0.5,1c0.5,1,1,1.9,1.6,2.9
			c0.3,0.5,0.5,1,0.8,1.5c0.1,0.2,0.1,0.4-0.1,0.5C44.8,44.3,44.1,44.7,43.7,45.3z M45.5,46.6c-0.4-0.2-0.8-0.5-1.2-0.8
			c-0.2-0.1-0.2-0.2,0-0.4c0.5-0.5,1-0.8,1.6-1.1c0.2-0.1,0.3,0,0.3,0.2c0.1,0.3,0.3,0.5,0.4,0.8c0.3,0.5,0.4,1.1,0.8,1.6
			c0.1,0.1,0.1,0.3,0.2,0.5C46.7,47.2,46.1,46.9,45.5,46.6z"/>
		<path class="st0" d="M11.6,16.5c-0.3-0.3-0.6-0.6-0.9-1c-0.6-0.7-1.3-1.2-2-1.9c-0.7-0.7-1.5-1.4-2.2-2.2c-0.3-0.4-0.7-0.7-1.1-1
			c-0.2-0.2-0.3-0.3,0.1-0.4c0.7-0.3,1.4-0.7,2-1.2c0.7-0.6,0.5-0.5,1.1,0c0.7,0.6,1.3,1.2,1.9,1.8c1.3,1.2,2.6,2.5,3.8,3.7
			c0-0.1,0.1-0.3,0.2-0.4c-0.5-0.5-1.1-1.1-1.6-1.6C11.4,11,9.9,9.6,8.5,8.3C8.3,8.1,8.3,8,8.5,7.9c0.8-0.7,1.4-1.7,1.8-2.7
			C10.4,5,10.5,5,10.7,5.2c0.6,0.6,1.2,1.1,1.7,1.8c0.6,0.7,1.2,1.3,1.8,1.9c0.4,0.4,0.7,0.9,1.1,1.3c0.5,0.6,1.1,1.1,1.7,1.7
			c0.1-0.1,0.2-0.1,0.4-0.2c-0.7-0.6-1.3-1.3-1.9-1.9c-1.2-1.3-2.4-2.7-3.7-4.1C11,4.8,10.2,4,9.4,3.2C8.8,2.7,8.3,2,7.7,1.5
			C7.6,1.4,7.4,1.2,7.3,1.1c0,0,0,0,0,0C7.2,1.1,7.2,1,7.1,1C6.9,0.9,6.7,0.8,6.5,0.8c-0.1,0-0.1,0-0.2,0c-0.1,0-0.2,0-0.3,0
			c0,0,0,0,0,0c0,0-0.1,0-0.1,0c0,0,0,0,0,0C5,0.8,4.3,1.3,3.6,1.9C2.8,2.7,1.9,3.3,1.4,4.3C1.2,4.6,1,5,1,5.4c0,0,0,0,0,0
			c0,0,0,0.1,0,0.1c0,0.2,0.1,0.4,0.2,0.6c0,0.2,0.1,0.3,0.2,0.5c0,0,0,0.1,0.1,0.1C1.4,6.9,1.5,7,1.5,7.1c0,0,0,0.1,0.1,0.1
			c0.5,0.5,1,1,1.5,1.5c1.6,1.5,3.2,3.1,4.8,4.7c0.9,0.9,1.8,1.6,2.6,2.5c0.3,0.3,0.6,0.6,0.8,0.9C11.4,16.7,11.5,16.6,11.6,16.5z
			 M3.2,8.2C2.6,7.7,2,7.1,1.7,6.4C1.4,5.8,1.4,5.3,1.8,4.7C2.1,4.1,2.6,3.5,3,3.2C3.6,2.7,4,2.3,4.4,2C5,1.5,5.6,1.1,6.4,1.2
			c0.1,0,0.3,0,0.4,0.1c0.5,0.5,1,1,1.6,1.5C8.5,3,8.5,3.2,8.4,3.4C8,4.3,7.6,5.1,7,5.9C6.7,6.2,6.4,6.5,6.1,6.7
			C5.6,7,5.1,7.4,4.6,7.8C4.3,8.1,4,8.2,3.6,8.4C3.5,8.5,3.3,8.3,3.2,8.2z M4.2,9.1C4.1,9.1,4,9.1,4,9C3.9,8.8,4.1,8.8,4.1,8.8
			c1.2-0.6,2.1-1.5,3.1-2.4c0.6-0.5,0.8-1.2,1.2-1.9c0.2-0.3,0.3-0.7,0.5-1c0.3,0.2,0.4,0.4,0.2,0.8C8.9,4.9,8.6,5.5,8.1,6
			c-0.6,0.7-1.3,1.4-2,2C5.6,8.4,5.1,8.7,4.5,9C4.4,9.1,4.3,9.1,4.2,9.1z M6.9,8.1C7.6,7.4,8.4,6.6,9,5.7C9.3,5.4,9.5,5,9.6,4.6
			c0-0.1,0.1-0.3,0.2-0.2C10,4.4,10,4.6,9.9,4.7C9.8,5.1,9.7,5.5,9.4,5.9c-1,1.5-2.2,2.7-3.8,3.5C5.3,9.6,5,9.7,4.6,9.7
			C5.4,9.2,6.2,8.8,6.9,8.1z"/>
	</g>
	<g>
		<path class="st0" d="M21,8.8c1.1,0,2.2,0.2,3.1,0.9c0.2,0.1,0.4,0.3,0.6,0.3c0.3,0.1,0.3-0.3,0.4-0.5c0.7-1,1.9-1.1,3-1.1
			c0.9,0,1.9,0.3,2.7,0.6c0.7,0.3,1.1,0.8,1.2,1.5c0,0.2,0.2,0.3,0.3,0.3c1.3,0.3,2.1,1.1,2.4,2.3c0.2,0.7,0,1.5-0.6,2
			c-0.1,0-0.2,0.1-0.2,0.2c0,0.1,0.1,0.1,0.2,0.1c1,0.3,2,0.5,2.9,1.1c0.9,0.7,1.4,1.8,1,2.8c-0.3,0.7-0.1,1.4,0.3,2
			c0.5,0.8,0.9,1.6,1.1,2.5c0.2,0.9,0.2,1.7-0.3,2.5c-0.1,0.2-0.2,0.3,0.1,0.4c0.1,0,0.2,0.1,0.2,0.1c0.6,0.8,1.3,1.5,1.3,2.7
			c0,1.6-0.4,3-1.7,4.1c-0.8,0.7-0.9,1.5-0.9,2.4c-0.1,1-0.3,1.9-1,2.7c-0.3,0.4-0.7,0.6-1.1,0.7c-1.2,0.1-2,0.8-2.5,1.8
			c-0.3,0.5-0.7,1-1.1,1.4c-0.2,0.2-0.5,0.3-0.8,0.3c-0.7,0.2-1.5,0.1-2.2-0.1c-1.5-0.3-2.8-1.2-3.9-2.2c-0.2-0.1-0.3-0.3-0.4-0.5
			c-0.2-0.3-0.4-0.3-0.5,0c-0.4,0.8-1,1.5-1.7,2c-0.6,0.4-1.2,0.7-2,0.8c-0.8,0.1-1.5,0-2.2,0c-0.9-0.1-1.7-0.5-2.5-0.9
			c-1.4-0.9-2.7-1.9-3.8-3.1c-0.9-0.9-1.5-2-1.5-3.4c0-0.2,0-0.4,0.1-0.6c0.1-0.2,0.1-0.3-0.1-0.4c-1-0.7-1.7-1.7-2-3
			c-0.3-1.3-0.3-2.6,0.3-3.8c0,0,0-0.1,0.1-0.1c0.4-0.2,0.2-0.5,0-0.8c-0.7-1.7-0.2-4.1,1.2-5.3c0.1-0.1,0.1-0.2,0.1-0.3
			c-0.2-0.7-0.3-1.4-0.4-2.1c-0.2-1.4,0.6-2.7,1.9-3.4c0.5-0.2,0.9-0.4,1.4-0.3c0.2,0,0.3-0.1,0.3-0.3c0-0.9,0.2-1.7,0.6-2.5
			c0.4-0.8,0.9-1.1,1.7-1.1c0.4,0,0.5-0.1,0.7-0.4c0.8-1.5,2-2.2,3.6-2.2C20.8,8.8,20.9,8.8,21,8.8z M24.2,34.9c0-0.1,0-0.1,0-0.2
			c0.1-1.6,0.2-3.2,0.2-4.8c0-2,0.2-4,0.3-6c0.1-1.3,0.1-2.6,0.1-3.9c0-0.2-0.1-0.3-0.3-0.3c-0.9-0.2-1.7-0.6-2.3-1.3
			c-0.2-0.1-0.4-0.3-0.2-0.6c0.2-0.2,0.4,0.1,0.5,0.2c0.5,0.5,1.1,0.9,1.8,1.1c0.4,0.1,0.4,0.1,0.4-0.3c0-1.6,0-3.2,0-4.8
			c0-1.1,0-2.1-0.1-3.2c0-0.2,0-0.4-0.2-0.6c-0.9-0.5-1.6-1.2-2.7-1.2c-0.5,0-1,0-1.5,0c-1.3,0.1-2.2,0.7-2.9,1.8
			c-0.1,0.2-0.2,0.3,0.2,0.4c0.7,0,1.2,0.3,1.8,0.6c0.2,0.1,0.5,0.3,0.7,0.4c0.1,0.1,0.1,0.2,0.1,0.3c-0.1,0.1-0.2,0.1-0.3,0.1
			c-0.1,0-0.1-0.1-0.2-0.1c-1.1-0.6-2.3-0.9-3.6-0.7c-0.5,0.1-0.9,0.3-1.1,0.7c-0.4,0.7-0.6,1.5-0.6,2.4c0,0.3,0.1,0.5,0.4,0.5
			c0.4,0,0.8,0.1,1.1,0.4c0.4,0.3,0.8,0.6,1.2,1c0.5,0.5,0.9,1.1,1.2,1.7c0.1,0.1,0.1,0.3,0,0.4c-0.2,0.1-0.2,0-0.3-0.2
			c-0.1-0.2-0.2-0.4-0.4-0.6c-0.8-1.1-1.8-2.2-3.3-2.2c-0.2,0-0.4,0-0.6,0c-1.3,0-2.7,1.1-2.9,2.3c-0.2,1.1,0.1,2.1,0.5,3.1
			c0,0.1,0.1,0.2,0.1,0.4c0,0.1,0,0.3-0.2,0.2c-0.4-0.1-0.5,0.2-0.7,0.4c-0.8,1.2-1.2,2.5-0.8,3.9c0.3,1,1,1.5,1.8,1.9
			c0.7,0.4,1.4,0.8,2.2,1c0.1,0,0.2,0.1,0.2,0.3c0,0.2-0.1,0.2-0.3,0.2c-0.4-0.1-0.8-0.1-1.1-0.3c-0.8-0.5-1.7-0.8-2.4-1.5
			c-0.1-0.1-0.2-0.1-0.3,0.1c-0.6,1.2-0.7,2.5-0.3,3.8c0.4,1.4,1.4,2.4,2.7,3c0.6,0.3,1.1,0.4,1.6,0.2c0.3-0.1,0.6-0.1,0.9-0.2
			c0.1,0,0.3,0,0.3,0.2c0.1,0.2-0.1,0.2-0.2,0.3c-0.4,0.2-0.8,0.2-1.2,0.2c-0.6,0.1-1.1,0-1.6-0.3c-0.3-0.2-0.4-0.1-0.5,0.2
			c0,0.1,0,0.3,0,0.4c0,1,0.4,1.8,1,2.5c1,1.1,2.1,2,3.3,2.9c0.7,0.5,1.5,1,2.3,1.3c1.1,0.4,2.2,0.3,3.3,0.2c0.5-0.1,1-0.3,1.4-0.6
			c0.5-0.4,1-1,1.4-1.6c0.2-0.2,0.2-0.5,0.2-0.8c-0.1-0.9-0.2-1.8-0.2-2.7c0-0.6,0-1.1-0.4-1.6c-0.5-0.7-1-1.3-1.7-1.6
			c-0.3-0.2-0.6-0.4-1-0.4c-0.1,0-0.3-0.1-0.3-0.2c0-0.2,0.2-0.2,0.3-0.2c0.1,0,0.1,0,0.2,0c0.5,0.2,0.9,0.3,1.4,0.6
			C23.3,33.7,23.7,34.3,24.2,34.9z M25.2,17.7c0,0.6,0,1.2,0,1.8c0.1,1.4,0.1,2.8,0,4.2c-0.1,1.3-0.2,2.6-0.2,3.9
			c-0.1,2-0.1,4.1-0.2,6.1c-0.1,1.7-0.2,3.5,0,5.2c0,0.1-0.1,0.3,0.1,0.3c0.3,0,0.3,0.3,0.4,0.4c0.2,0.3,0.4,0.5,0.6,0.7
			c1.2,1,2.5,1.8,4,2c1.3,0.2,2.5-0.1,3.2-1.4c0.6-1.1,1.5-1.9,2.9-2.1c0.5-0.1,0.9-0.4,1.2-0.8c0.5-0.7,0.7-1.4,0.7-2.2
			c0.1-1,0.2-1.9,1-2.6c1.3-1.1,1.8-2.5,1.5-4.2c-0.1-0.8-0.6-1.4-1.2-1.9c-0.2-0.2-0.4-0.2-0.6,0.1c-0.5,0.8-1.3,1.3-2,1.7
			c-0.1,0.1-0.2,0.2-0.3,0c-0.1-0.1,0-0.3,0.1-0.4c0,0,0.1-0.1,0.2-0.1c1-0.5,1.7-1.2,2.2-2.2c0.2-0.4,0.5-0.8,0.5-1.3
			c0-1.1-0.3-2-0.9-2.9c-0.7-0.9-0.9-1.9-0.5-3c0.1-0.3,0.1-0.6,0-0.8c-0.3-1-1.1-1.6-2.1-1.9c-0.7-0.2-1.3-0.3-2-0.6
			c-0.4-0.2-0.7-0.1-1,0.1c-1,0.5-1.6,1.3-2.1,2.3c-0.2,0.4-0.3,0.9-0.4,1.4c0,0.2,0.2,0.5-0.2,0.5c-0.3,0-0.2-0.4-0.2-0.6
			c0,0,0,0,0,0c0.2-1.5,0.9-2.6,2-3.6c0.6-0.5,1.3-0.7,2-1.1c0.4-0.3,0.7-0.8,0.6-1.2c-0.2-1-1.2-2.1-2.3-2.3c-0.2,0-0.4,0-0.5,0.2
			c-0.4,0.7-1,1-1.6,1.4c-0.1,0.1-0.2,0.1-0.3,0c-0.1-0.1-0.1-0.2,0-0.3c0.1-0.1,0.2-0.1,0.3-0.2c0.5-0.3,0.9-0.5,1.2-1
			c0.5-0.7,0.3-1.4-0.5-1.8c-1.4-0.7-2.9-1-4.5-0.5c-0.8,0.2-1.4,1-1.4,1.9c0.1,1.9,0.1,3.8,0.1,5.6c0,0.3,0,0.6,0,0.8
			c0.3-0.2,0.6-0.4,0.8-0.7c0.2-0.2,0.5-0.5,0.7-0.7c0.1-0.1,0.1-0.1,0.2-0.1c0.1,0.1,0.1,0.2,0,0.2c0,0.1,0,0.2-0.1,0.2
			c-0.4,0.5-0.8,0.9-1.2,1.3C25.5,17.8,25.3,17.9,25.2,17.7z"/>
		<path class="st0" d="M20.1,24.1c-2.1-0.1-3.3-1.4-4.5-2.8c-0.2-0.2-0.3-0.5-0.3-0.7c0-0.1-0.1-0.2,0.1-0.3
			c0.2-0.1,0.2,0.1,0.3,0.2c0.8,1.4,2,2.4,3.5,2.9c0.8,0.3,1.7,0.2,2.5-0.1c0.1-0.1,0.2-0.1,0.4-0.1c0.1,0,0.3-0.1,0.4,0
			c0.1,0.2-0.1,0.3-0.2,0.4C21.7,23.8,21.4,24,21,24c-0.2,0-0.4,0.1-0.5,0.3c-0.5,0.9-1,1.7-1.9,2.3c-0.7,0.4-1.4,0.7-2.1,0.8
			c-0.1,0-0.1,0-0.2,0c-0.1,0-0.3-0.1-0.3-0.2c0-0.2,0.1-0.2,0.3-0.2c0.6-0.1,1.1-0.3,1.6-0.5C18.9,26,19.5,25.2,20.1,24.1z"/>
		<path class="st0" d="M34.1,27.1c-0.2,0-0.4-0.1-0.5-0.2c-1.1-0.7-2-1.6-2-3.1c0-0.2-0.1-0.2-0.2-0.2c-1.4,0-2.5-0.6-3.5-1.4
			c-0.1-0.1-0.3-0.2-0.2-0.4c0.1-0.2,0.3-0.1,0.4,0c0.5,0.3,1,0.6,1.5,0.9c1.4,0.6,2.8,0.4,4.1-0.2c0.5-0.2,0.8-0.6,1.2-1
			c0.1-0.1,0.2-0.2,0.3-0.2c0.2,0.1,0.1,0.3,0,0.4c-0.3,0.6-0.9,1-1.4,1.3c-0.5,0.2-1,0.4-1.5,0.4c-0.3,0-0.4,0.2-0.4,0.4
			c0,0.3,0,0.5,0.2,0.8c0.5,0.9,1.1,1.5,2.1,1.9c0.1,0,0.2,0.1,0.2,0.3C34.4,27.1,34.3,27.1,34.1,27.1z"/>
		<path class="st0" d="M30.9,37.3c-1.3,0-2.2-1.2-2.4-2.2c-0.1-0.5-0.1-0.5-0.6-0.5c-0.6,0-1.2-0.2-1.9-0.3c-0.1,0-0.3-0.2-0.2-0.3
			c0.1-0.2,0.2-0.2,0.4-0.1c0.6,0.2,1.2,0.3,1.9,0.3c1.7-0.1,3-0.8,3.9-2.2c0.1-0.1,0.1-0.2,0.2-0.3c0.1-0.1,0.2-0.2,0.3-0.1
			c0.1,0.1,0.2,0.2,0.1,0.4c-0.5,0.7-0.9,1.3-1.6,1.8c-0.6,0.4-1.2,0.7-1.9,0.8c-0.2,0-0.3,0.1-0.3,0.4c0.1,0.9,0.8,1.7,1.7,1.9
			c0.1,0,0.2,0,0.4,0.1c0.2,0,0.3,0.2,0.3,0.3C31.2,37.3,31,37.3,30.9,37.3z"/>
	</g>
</g>
</svg>
