<?xml version="1.0" encoding="utf-8"?>
<!-- Generator: Adobe Illustrator 18.0.0, SVG Export Plug-In . SVG Version: 6.00 Build 0)  -->
<!DOCTYPE svg PUBLIC "-//W3C//DTD SVG 1.1//EN" "http://www.w3.org/Graphics/SVG/1.1/DTD/svg11.dtd">
<svg version="1.1" id="Laag_1" xmlns="http://www.w3.org/2000/svg" xmlns:xlink="http://www.w3.org/1999/xlink" x="0px" y="0px"
	 viewBox="0 0 309.6 208.7" style="enable-background:new 0 0 309.6 208.7;" xml:space="preserve">
<style type="text/css">
	.st0{fill:#B42F1F;}
	.st1{fill:#2F2B6D;}
	.st2{fill:#ACAE32;}
	.st3{fill:#58477D;}
</style>
<g>
	<g>
		<path class="st0" d="M3.1,17.7c0-13.6,6.7-20.6,20-16.6l48.1,14.2l5.8,36.3l-37-10.9c-2.3-0.7-3,0.4-3,2.7v110.2
			c0,2.3,0.7,3.8,3,4.5l15.3,4.5V89.3L88.2,99v107.1l-58.8-17.4c-19.3-5.7-26.3-16-26.3-36.5V17.7z"/>
		<path class="st1" d="M101.5,20.3l33.7-10v185.8l-33.7,10V20.3z"/>
		<path class="st2" d="M157.5,191.7l-6-36.4l36.3,10.7c3,0.9,4,0.1,4-2.7v-33.8c0-5.1-1.6-5.9-6.3-7.2l-17.4-5.1
			c-10-3-18.8-8.1-18.8-26.6v-63c0-14.6,7-22,22.8-17.4l46.5,13.7l5.8,36.3L186.1,49c-2.8-0.8-4.2,0-4.2,2.9v33.8
			c0,3.8,1.6,5.4,5.1,6.4l21.2,6.2c10.7,3.2,16.7,10.1,16.7,23.9v61.2c0,20.5-6.5,26.3-25.8,20.6L157.5,191.7z"/>
		<path class="st3" d="M301.2,4.5l8.4,32.1L287,43.3v151.2l-34.4,10.2V53.5L230,60.1l8.8-37.2L301.2,4.5z"/>
	</g>
</g>
</svg>
